{
  "@schemaVersion": "0.1",
  "activeSheet": "Trial Balance",
  "defaults": {
    "columnWidth": 106,
    "rowHeight": 21
  },
  "#sheets": [
    {
      "name": "Trial Balance",
      "id": "sidOA3t8",
      "maxColIndexEdited": 49,
      "maxRowIndexEdited": 19,
      "selection": "C6:C6",
      "activeCell": "C6",
      "frozenRows": 0,
      "frozenColumns": 0,
      "showGridLines": true,
      "defaults": {
        "cellFontAttrs": {
          "family": "Arial",
          "size": "12"
        }
      },
      "#rows": [
        {
          "index": 0,
          "visible": true,
          "height": 20,
          "#cells": [
            {
              "ref": "A1",
              "value": "Fantasy Group",
              "index": 0,
              "fontAttrs": {
                "def": {
                  "family": "Calibri",
                  "size": 11,
                  "color": "#000000"
                }
              },
              "style": {
                "background": "#d3d3d3",
                "textAlign": "center",
                "verticalAlign": "bottom",
                "border": {
                  "left": {
                    "clr": "#000000",
                    "type": "thin"
                  },
                  "right": {
                    "clr": "#000000",
                    "type": "thin"
                  },
                  "bottom": {
                    "clr": "#000000",
                    "type": "thin"
                  },
                  "top": {
                    "clr": "#000000",
                    "type": "thin"
                  }
                }
              },
              "actualIndex": 0
            },
            {
              "ref": "B1",
              "index": 1,
              "fontAttrs": {
                "def": {
                  "family": "Calibri",
                  "size": 11,
                  "color": "#000000"
                }
              },
              "style": {
                "background": "#d3d3d3",
                "verticalAlign": "bottom",
                "border": {
                  "left": {
                    "clr": "#000000",
                    "type": "thin"
                  },
                  "right": {
                    "clr": "#000000",
                    "type": "thin"
                  },
                  "bottom": {
                    "clr": "#000000",
                    "type": "thin"
                  },
                  "top": {
                    "clr": "#000000",
                    "type": "thin"
                  }
                }
              },
              "actualIndex": 1
            },
            {
              "ref": "C1",
              "index": 2,
              "fontAttrs": {
                "def": {
                  "family": "Calibri",
                  "size": 11,
                  "color": "#000000"
                }
              },
              "style": {
                "background": "#d3d3d3",
                "verticalAlign": "bottom",
                "border": {
                  "left": {
                    "clr": "#000000",
                    "type": "thin"
                  },
                  "right": {
                    "clr": "#000000",
                    "type": "thin"
                  },
                  "bottom": {
                    "clr": "#000000",
                    "type": "thin"
                  },
                  "top": {
                    "clr": "#000000",
                    "type": "thin"
                  }
                }
              },
              "actualIndex": 2
            }
          ]
        },
        {
          "index": 1,
          "visible": true,
          "height": 20,
          "#cells": [
            {
              "ref": "A2",
              "value": "Trial Balance",
              "index": 0,
              "fontAttrs": {
                "def": {
                  "family": "Calibri",
                  "size": 11,
                  "color": "#000000"
                }
              },
              "style": {
                "background": "#d3d3d3",
                "textAlign": "center",
                "verticalAlign": "bottom",
                "border": {
                  "left": {
                    "clr": "#000000",
                    "type": "thin"
                  },
                  "right": {
                    "clr": "#000000",
                    "type": "thin"
                  },
                  "bottom": {
                    "clr": "#000000",
                    "type": "thin"
                  },
                  "top": {
                    "clr": "#000000",
                    "type": "thin"
                  }
                }
              },
              "actualIndex": 0
            },
            {
              "ref": "B2",
              "index": 1,
              "fontAttrs": {
                "def": {
                  "family": "Calibri",
                  "size": 11,
                  "color": "#000000"
                }
              },
              "style": {
                "background": "#d3d3d3",
                "verticalAlign": "bottom",
                "border": {
                  "left": {
                    "clr": "#000000",
                    "type": "thin"
                  },
                  "right": {
                    "clr": "#000000",
                    "type": "thin"
                  },
                  "bottom": {
                    "clr": "#000000",
                    "type": "thin"
                  },
                  "top": {
                    "clr": "#000000",
                    "type": "thin"
                  }
                }
              },
              "actualIndex": 1
            },
            {
              "ref": "C2",
              "index": 2,
              "fontAttrs": {
                "def": {
                  "family": "Calibri",
                  "size": 11,
                  "color": "#000000"
                }
              },
              "style": {
                "background": "#d3d3d3",
                "verticalAlign": "bottom",
                "border": {
                  "left": {
                    "clr": "#000000",
                    "type": "thin"
                  },
                  "right": {
                    "clr": "#000000",
                    "type": "thin"
                  },
                  "bottom": {
                    "clr": "#000000",
                    "type": "thin"
                  },
                  "top": {
                    "clr": "#000000",
                    "type": "thin"
                  }
                }
              },
              "actualIndex": 2
            }
          ]
        },
        {
          "index": 2,
          "visible": true,
          "height": 20,
          "#cells": [
            {
              "ref": "A3",
              "value": 43190,
              "index": 0,
              "fontAttrs": {
                "def": {
                  "family": "Calibri",
                  "size": 11,
                  "color": "#000000"
                }
              },
              "style": {
                "background": "#d3d3d3",
                "textAlign": "center",
                "verticalAlign": "bottom",
                "format": "mmmm\\ d\\,\\ yyyy",
                "border": {
                  "left": {
                    "clr": "#000000",
                    "type": "thin"
                  },
                  "right": {
                    "clr": "#000000",
                    "type": "thin"
                  },
                  "bottom": {
                    "clr": "#000000",
                    "type": "thin"
                  },
                  "top": {
                    "clr": "#000000",
                    "type": "thin"
                  }
                }
              },
              "actualIndex": 0
            },
            {
              "ref": "B3",
              "index": 1,
              "fontAttrs": {
                "def": {
                  "family": "Calibri",
                  "size": 11,
                  "color": "#000000"
                }
              },
              "style": {
                "background": "#d3d3d3",
                "verticalAlign": "bottom",
                "format": "mmmm\\ d\\,\\ yyyy",
                "border": {
                  "left": {
                    "clr": "#000000",
                    "type": "thin"
                  },
                  "right": {
                    "clr": "#000000",
                    "type": "thin"
                  },
                  "bottom": {
                    "clr": "#000000",
                    "type": "thin"
                  },
                  "top": {
                    "clr": "#000000",
                    "type": "thin"
                  }
                }
              },
              "actualIndex": 1
            },
            {
              "ref": "C3",
              "index": 2,
              "fontAttrs": {
                "def": {
                  "family": "Calibri",
                  "size": 11,
                  "color": "#000000"
                }
              },
              "style": {
                "background": "#d3d3d3",
                "verticalAlign": "bottom",
                "format": "mmmm\\ d\\,\\ yyyy",
                "border": {
                  "left": {
                    "clr": "#000000",
                    "type": "thin"
                  },
                  "right": {
                    "clr": "#000000",
                    "type": "thin"
                  },
                  "bottom": {
                    "clr": "#000000",
                    "type": "thin"
                  },
                  "top": {
                    "clr": "#000000",
                    "type": "thin"
                  }
                }
              },
              "actualIndex": 2
            }
          ]
        },
        {
          "index": 3,
          "visible": true,
          "height": 20,
          "#cells": [
            {
              "ref": "A4",
              "index": 0,
              "fontAttrs": {
                "def": {
                  "family": "Calibri",
                  "size": 11,
                  "color": "#000000"
                }
              },
              "style": {
                "background": "#d3d3d3",
                "verticalAlign": "bottom",
                "border": {
                  "left": {
                    "clr": "#000000",
                    "type": "thin"
                  },
                  "right": {
                    "clr": "#000000",
                    "type": "thin"
                  },
                  "bottom": {
                    "clr": "#000000",
                    "type": "thin"
                  },
                  "top": {
                    "clr": "#000000",
                    "type": "thin"
                  }
                }
              },
              "actualIndex": 0
            },
            {
              "ref": "B4",
              "value": "Balance",
              "index": 1,
              "fontAttrs": {
                "def": {
                  "family": "Calibri",
                  "size": 11,
                  "color": "#000000"
                }
              },
              "style": {
                "background": "#d3d3d3",
                "textAlign": "center",
                "verticalAlign": "bottom",
                "border": {
                  "left": {
                    "clr": "#000000",
                    "type": "thin"
                  },
                  "right": {
                    "clr": "#000000",
                    "type": "thin"
                  },
                  "bottom": {
                    "clr": "#000000",
                    "type": "thin"
                  },
                  "top": {
                    "clr": "#000000",
                    "type": "thin"
                  }
                }
              },
              "actualIndex": 1
            },
            {
              "ref": "C4",
              "index": 2,
              "fontAttrs": {
                "def": {
                  "family": "Calibri",
                  "size": 11,
                  "color": "#000000"
                }
              },
              "style": {
                "background": "#d3d3d3",
                "verticalAlign": "bottom",
                "border": {
                  "left": {
                    "clr": "#000000",
                    "type": "thin"
                  },
                  "right": {
                    "clr": "#000000",
                    "type": "thin"
                  },
                  "bottom": {
                    "clr": "#000000",
                    "type": "thin"
                  },
                  "top": {
                    "clr": "#000000",
                    "type": "thin"
                  }
                }
              },
              "actualIndex": 2
            }
          ]
        },
        {
          "index": 4,
          "visible": true,
          "height": 20,
          "#cells": [
            {
              "ref": "A5",
              "value": "Account Title",
              "index": 0,
              "fontAttrs": {
                "def": {
                  "family": "Calibri",
                  "size": 11,
                  "color": "#000000"
                }
              },
              "style": {
                "background": "#d3d3d3",
                "verticalAlign": "bottom",
                "border": {
                  "left": {
                    "clr": "#000000",
                    "type": "thin"
                  },
                  "right": {
                    "clr": "#000000",
                    "type": "thin"
                  },
                  "bottom": {
                    "clr": "#000000",
                    "type": "thin"
                  },
                  "top": {
                    "clr": "#000000",
                    "type": "thin"
                  }
                }
              },
              "actualIndex": 0
            },
            {
              "ref": "B5",
              "value": "Debit",
              "index": 1,
              "fontAttrs": {
                "def": {
                  "family": "Calibri",
                  "size": 11,
                  "color": "#000000"
                }
              },
              "style": {
                "background": "#d3d3d3",
                "textAlign": "center",
                "verticalAlign": "bottom",
                "border": {
                  "left": {
                    "clr": "#000000",
                    "type": "thin"
                  },
                  "right": {
                    "clr": "#000000",
                    "type": "thin"
                  },
                  "bottom": {
                    "clr": "#000000",
                    "type": "thin"
                  },
                  "top": {
                    "clr": "#000000",
                    "type": "thin"
                  }
                }
              },
              "actualIndex": 1
            },
            {
              "ref": "C5",
              "value": "Credit",
              "index": 2,
              "fontAttrs": {
                "def": {
                  "family": "Calibri",
                  "size": 11,
                  "color": "#000000"
                }
              },
              "style": {
                "background": "#d3d3d3",
                "textAlign": "center",
                "verticalAlign": "bottom",
                "border": {
                  "left": {
                    "clr": "#000000",
                    "type": "thin"
                  },
                  "right": {
                    "clr": "#000000",
                    "type": "thin"
                  },
                  "bottom": {
                    "clr": "#000000",
                    "type": "thin"
                  },
                  "top": {
                    "clr": "#000000",
                    "type": "thin"
                  }
                }
              },
              "actualIndex": 2
            }
          ]
        },
        {
          "index": 5,
          "visible": true,
          "height": 20,
          "#cells": [
            {
              "ref": "A6",
              "value": 17300,
              "index": 0,
              "fontAttrs": {
                "def": {
                  "family": "Calibri",
                  "size": 11,
                  "color": "#000000"
                }
              },
              "style": {
                "verticalAlign": "bottom",
                "border": {
                  "left": {
                    "clr": "#000000",
                    "type": "thin"
                  },
                  "right": {
                    "clr": "#000000",
                    "type": "thin"
                  },
                  "bottom": {
                    "clr": "#000000",
                    "type": "thin"
                  },
                  "top": {
                    "clr": "#000000",
                    "type": "thin"
                  }
                }
              },
              "actualIndex": 0
            },
            {
              "ref": "B6",
              "index": 1,
              "fontAttrs": {
                "def": {
                  "family": "Calibri",
                  "size": 11,
                  "color": "#000000"
                }
              },
              "style": {
                "verticalAlign": "center",
                "format": "\"$\"#,##0",
                "border": {
                  "left": {
                    "clr": "#000000",
                    "type": "thin"
                  },
                  "right": {
                    "clr": "#000000",
                    "type": "thin"
                  },
                  "bottom": {
                    "clr": "#000000",
                    "type": "thin"
                  },
                  "top": {
                    "clr": "#000000",
                    "type": "thin"
                  }
                }
              },
              "actualIndex": 1
            },
            {
              "ref": "C6",
              "value": "Ca",
              "index": 2,
              "fontAttrs": {
                "def": {
                  "family": "Calibri",
                  "size": 11,
                  "color": "#000000"
                }
              },
              "style": {
                "verticalAlign": "bottom",
                "format": "\"$\"#,##0",
                "border": {
                  "left": {
                    "clr": "#000000",
                    "type": "thin"
                  },
                  "right": {
                    "clr": "#000000",
                    "type": "thin"
                  },
                  "bottom": {
                    "clr": "#000000",
                    "type": "thin"
                  },
                  "top": {
                    "clr": "#000000",
                    "type": "thin"
                  }
                }
              },
              "actualIndex": 2
            },
            {
              "ref": "D6",
              "index": 3,
              "fontAttrs": {
                "def": {
                  "family": "Calibri",
                  "size": 11,
                  "color": "#000000"
                }
              },
              "style": {
                "verticalAlign": "bottom",
                "border": {
                  "left": {
                    "clr": "#000000",
                    "type": "thin"
                  }
                }
              },
              "actualIndex": 3
            },
            {
              "ref": "E6",
              "value": "Cas",
              "index": 4,
              "fontAttrs": {
                "def": {
                  "family": "Calibri",
                  "size": 11,
                  "color": "#000000"
                }
              },
              "style": {
                "verticalAlign": "bottom"
              },
              "actualIndex": 4
            }
          ]
        },
        {
          "index": 6,
          "visible": true,
          "height": 20,
          "#cells": [
            {
              "ref": "A7",
              "index": 0,
              "fontAttrs": {
                "def": {
                  "family": "Calibri",
                  "size": 11,
                  "color": "#000000"
                }
              },
              "style": {
                "verticalAlign": "center",
                "border": {
                  "left": {
                    "clr": "#000000",
                    "type": "thin"
                  },
                  "right": {
                    "clr": "#000000",
                    "type": "thin"
                  },
                  "bottom": {
                    "clr": "#000000",
                    "type": "thin"
                  },
                  "top": {
                    "clr": "#000000",
                    "type": "thin"
                  }
                }
              },
              "actualIndex": 0
            },
            {
              "ref": "B7",
              "index": 1,
              "fontAttrs": {
                "def": {
                  "family": "Calibri",
                  "size": 11,
                  "color": "#000000"
                }
              },
              "style": {
                "verticalAlign": "center",
                "format": "\"$\"#,##0",
                "border": {
                  "left": {
                    "clr": "#000000",
                    "type": "thin"
                  },
                  "right": {
                    "clr": "#000000",
                    "type": "thin"
                  },
                  "bottom": {
                    "clr": "#000000",
                    "type": "thin"
                  },
                  "top": {
                    "clr": "#000000",
                    "type": "thin"
                  }
                }
              },
              "actualIndex": 1
            },
            {
              "ref": "C7",
              "index": 2,
              "fontAttrs": {
                "def": {
                  "family": "Calibri",
                  "size": 11,
                  "color": "#000000"
                }
              },
              "style": {
                "verticalAlign": "bottom",
                "format": "\"$\"#,##0",
                "border": {
                  "left": {
                    "clr": "#000000",
                    "type": "thin"
                  },
                  "right": {
                    "clr": "#000000",
                    "type": "thin"
                  },
                  "bottom": {
                    "clr": "#000000",
                    "type": "thin"
                  },
                  "top": {
                    "clr": "#000000",
                    "type": "thin"
                  }
                }
              },
              "actualIndex": 2
            }
          ]
        },
        {
          "index": 7,
          "visible": true,
          "height": 20,
          "#cells": [
            {
              "ref": "A8",
              "value": "Supplies",
              "index": 0,
              "fontAttrs": {
                "def": {
                  "family": "Calibri",
                  "size": 11,
                  "color": "#000000"
                }
              },
              "style": {
                "verticalAlign": "center",
                "border": {
                  "left": {
                    "clr": "#000000",
                    "type": "thin"
                  },
                  "right": {
                    "clr": "#000000",
                    "type": "thin"
                  },
                  "bottom": {
                    "clr": "#000000",
                    "type": "thin"
                  },
                  "top": {
                    "clr": "#000000",
                    "type": "thin"
                  }
                }
              },
              "actualIndex": 0
            },
            {
              "ref": "B8",
              "value": 6910,
              "index": 1,
              "fontAttrs": {
                "def": {
                  "family": "Calibri",
                  "size": 11,
                  "color": "#000000"
                }
              },
              "style": {
                "verticalAlign": "center",
                "format": "\"$\"#,##0",
                "border": {
                  "left": {
                    "clr": "#000000",
                    "type": "thin"
                  },
                  "right": {
                    "clr": "#000000",
                    "type": "thin"
                  },
                  "bottom": {
                    "clr": "#000000",
                    "type": "thin"
                  },
                  "top": {
                    "clr": "#000000",
                    "type": "thin"
                  }
                }
              },
              "actualIndex": 1
            },
            {
              "ref": "C8",
              "index": 2,
              "fontAttrs": {
                "def": {
                  "family": "Calibri",
                  "size": 11,
                  "color": "#000000"
                }
              },
              "style": {
                "verticalAlign": "bottom",
                "format": "\"$\"#,##0",
                "border": {
                  "left": {
                    "clr": "#000000",
                    "type": "thin"
                  },
                  "right": {
                    "clr": "#000000",
                    "type": "thin"
                  },
                  "bottom": {
                    "clr": "#000000",
                    "type": "thin"
                  },
                  "top": {
                    "clr": "#000000",
                    "type": "thin"
                  }
                }
              },
              "actualIndex": 2
            }
          ]
        },
        {
          "index": 8,
          "visible": true,
          "height": 20,
          "#cells": [
            {
              "ref": "A9",
              "value": "Prepaid Insurance",
              "index": 0,
              "fontAttrs": {
                "def": {
                  "family": "Calibri",
                  "size": 11,
                  "color": "#000000"
                }
              },
              "style": {
                "verticalAlign": "center",
                "border": {
                  "left": {
                    "clr": "#000000",
                    "type": "thin"
                  },
                  "right": {
                    "clr": "#000000",
                    "type": "thin"
                  },
                  "bottom": {
                    "clr": "#000000",
                    "type": "thin"
                  },
                  "top": {
                    "clr": "#000000",
                    "type": "thin"
                  }
                }
              },
              "actualIndex": 0
            },
            {
              "ref": "B9",
              "value": 1960,
              "index": 1,
              "fontAttrs": {
                "def": {
                  "family": "Calibri",
                  "size": 11,
                  "color": "#000000"
                }
              },
              "style": {
                "verticalAlign": "center",
                "format": "\"$\"#,##0",
                "border": {
                  "left": {
                    "clr": "#000000",
                    "type": "thin"
                  },
                  "right": {
                    "clr": "#000000",
                    "type": "thin"
                  },
                  "bottom": {
                    "clr": "#000000",
                    "type": "thin"
                  },
                  "top": {
                    "clr": "#000000",
                    "type": "thin"
                  }
                }
              },
              "actualIndex": 1
            },
            {
              "ref": "C9",
              "index": 2,
              "fontAttrs": {
                "def": {
                  "family": "Calibri",
                  "size": 11,
                  "color": "#000000"
                }
              },
              "style": {
                "verticalAlign": "bottom",
                "format": "\"$\"#,##0",
                "border": {
                  "left": {
                    "clr": "#000000",
                    "type": "thin"
                  },
                  "right": {
                    "clr": "#000000",
                    "type": "thin"
                  },
                  "bottom": {
                    "clr": "#000000",
                    "type": "thin"
                  },
                  "top": {
                    "clr": "#000000",
                    "type": "thin"
                  }
                }
              },
              "actualIndex": 2
            }
          ]
        },
        {
          "index": 9,
          "visible": true,
          "height": 20,
          "#cells": [
            {
              "ref": "A10",
              "value": "Equipment",
              "index": 0,
              "fontAttrs": {
                "def": {
                  "family": "Calibri",
                  "size": 11,
                  "color": "#000000"
                }
              },
              "style": {
                "verticalAlign": "center",
                "border": {
                  "left": {
                    "clr": "#000000",
                    "type": "thin"
                  },
                  "right": {
                    "clr": "#000000",
                    "type": "thin"
                  },
                  "bottom": {
                    "clr": "#000000",
                    "type": "thin"
                  },
                  "top": {
                    "clr": "#000000",
                    "type": "thin"
                  }
                }
              },
              "actualIndex": 0
            },
            {
              "ref": "B10",
              "value": 176650,
              "index": 1,
              "fontAttrs": {
                "def": {
                  "family": "Calibri",
                  "size": 11,
                  "color": "#000000"
                }
              },
              "style": {
                "verticalAlign": "center",
                "format": "\"$\"#,##0",
                "border": {
                  "left": {
                    "clr": "#000000",
                    "type": "thin"
                  },
                  "right": {
                    "clr": "#000000",
                    "type": "thin"
                  },
                  "bottom": {
                    "clr": "#000000",
                    "type": "thin"
                  },
                  "top": {
                    "clr": "#000000",
                    "type": "thin"
                  }
                }
              },
              "actualIndex": 1
            },
            {
              "ref": "C10",
              "index": 2,
              "fontAttrs": {
                "def": {
                  "family": "Calibri",
                  "size": 11,
                  "color": "#000000"
                }
              },
              "style": {
                "verticalAlign": "bottom",
                "format": "\"$\"#,##0",
                "border": {
                  "left": {
                    "clr": "#000000",
                    "type": "thin"
                  },
                  "right": {
                    "clr": "#000000",
                    "type": "thin"
                  },
                  "bottom": {
                    "clr": "#000000",
                    "type": "thin"
                  },
                  "top": {
                    "clr": "#000000",
                    "type": "thin"
                  }
                }
              },
              "actualIndex": 2
            }
          ]
        },
        {
          "index": 10,
          "visible": true,
          "height": 20,
          "#cells": [
            {
              "ref": "A11",
              "value": "Accounts Payable",
              "index": 0,
              "fontAttrs": {
                "def": {
                  "family": "Calibri",
                  "size": 11,
                  "color": "#000000"
                }
              },
              "style": {
                "verticalAlign": "center",
                "border": {
                  "left": {
                    "clr": "#000000",
                    "type": "thin"
                  },
                  "right": {
                    "clr": "#000000",
                    "type": "thin"
                  },
                  "bottom": {
                    "clr": "#000000",
                    "type": "thin"
                  },
                  "top": {
                    "clr": "#000000",
                    "type": "thin"
                  }
                }
              },
              "actualIndex": 0
            },
            {
              "ref": "B11",
              "index": 1,
              "fontAttrs": {
                "def": {
                  "family": "Calibri",
                  "size": 11,
                  "color": "#000000"
                }
              },
              "style": {
                "verticalAlign": "bottom",
                "format": "\"$\"#,##0",
                "border": {
                  "left": {
                    "clr": "#000000",
                    "type": "thin"
                  },
                  "right": {
                    "clr": "#000000",
                    "type": "thin"
                  },
                  "bottom": {
                    "clr": "#000000",
                    "type": "thin"
                  },
                  "top": {
                    "clr": "#000000",
                    "type": "thin"
                  }
                }
              },
              "actualIndex": 1
            },
            {
              "ref": "C11",
              "value": 26000,
              "index": 2,
              "fontAttrs": {
                "def": {
                  "family": "Calibri",
                  "size": 11,
                  "color": "#000000"
                }
              },
              "style": {
                "verticalAlign": "center",
                "format": "\"$\"#,##0",
                "border": {
                  "left": {
                    "clr": "#000000",
                    "type": "thin"
                  },
                  "right": {
                    "clr": "#000000",
                    "type": "thin"
                  },
                  "bottom": {
                    "clr": "#000000",
                    "type": "thin"
                  },
                  "top": {
                    "clr": "#000000",
                    "type": "thin"
                  }
                }
              },
              "actualIndex": 2
            }
          ]
        },
        {
          "index": 11,
          "visible": true,
          "height": 20,
          "#cells": [
            {
              "ref": "A12",
              "value": "Notes Payable",
              "index": 0,
              "fontAttrs": {
                "def": {
                  "family": "Calibri",
                  "size": 11,
                  "color": "#000000"
                }
              },
              "style": {
                "verticalAlign": "center",
                "border": {
                  "left": {
                    "clr": "#000000",
                    "type": "thin"
                  },
                  "right": {
                    "clr": "#000000",
                    "type": "thin"
                  },
                  "bottom": {
                    "clr": "#000000",
                    "type": "thin"
                  },
                  "top": {
                    "clr": "#000000",
                    "type": "thin"
                  }
                }
              },
              "actualIndex": 0
            },
            {
              "ref": "B12",
              "index": 1,
              "fontAttrs": {
                "def": {
                  "family": "Calibri",
                  "size": 11,
                  "color": "#000000"
                }
              },
              "style": {
                "verticalAlign": "bottom",
                "format": "\"$\"#,##0",
                "border": {
                  "left": {
                    "clr": "#000000",
                    "type": "thin"
                  },
                  "right": {
                    "clr": "#000000",
                    "type": "thin"
                  },
                  "bottom": {
                    "clr": "#000000",
                    "type": "thin"
                  },
                  "top": {
                    "clr": "#000000",
                    "type": "thin"
                  }
                }
              },
              "actualIndex": 1
            },
            {
              "ref": "C12",
              "value": 88090,
              "index": 2,
              "fontAttrs": {
                "def": {
                  "family": "Calibri",
                  "size": 11,
                  "color": "#000000"
                }
              },
              "style": {
                "verticalAlign": "center",
                "format": "\"$\"#,##0",
                "border": {
                  "left": {
                    "clr": "#000000",
                    "type": "thin"
                  },
                  "right": {
                    "clr": "#000000",
                    "type": "thin"
                  },
                  "bottom": {
                    "clr": "#000000",
                    "type": "thin"
                  },
                  "top": {
                    "clr": "#000000",
                    "type": "thin"
                  }
                }
              },
              "actualIndex": 2
            }
          ]
        },
        {
          "index": 12,
          "visible": true,
          "height": 20,
          "#cells": [
            {
              "ref": "A13",
              "value": "Owner's",
              "index": 0,
              "fontAttrs": {
                "def": {
                  "family": "Calibri",
                  "size": 11,
                  "color": "#000000"
                }
              },
              "style": {
                "verticalAlign": "center",
                "border": {
                  "left": {
                    "clr": "#000000",
                    "type": "thin"
                  },
                  "right": {
                    "clr": "#000000",
                    "type": "thin"
                  },
                  "bottom": {
                    "clr": "#000000",
                    "type": "thin"
                  },
                  "top": {
                    "clr": "#000000",
                    "type": "thin"
                  }
                }
              },
              "actualIndex": 0
            },
            {
              "ref": "B13",
              "index": 1,
              "fontAttrs": {
                "def": {
                  "family": "Calibri",
                  "size": 11,
                  "color": "#000000"
                }
              },
              "style": {
                "verticalAlign": "bottom",
                "format": "\"$\"#,##0",
                "border": {
                  "left": {
                    "clr": "#000000",
                    "type": "thin"
                  },
                  "right": {
                    "clr": "#000000",
                    "type": "thin"
                  },
                  "bottom": {
                    "clr": "#000000",
                    "type": "thin"
                  },
                  "top": {
                    "clr": "#000000",
                    "type": "thin"
                  }
                }
              },
              "actualIndex": 1
            },
            {
              "ref": "C13",
              "value": 145835,
              "index": 2,
              "fontAttrs": {
                "def": {
                  "family": "Calibri",
                  "size": 11,
                  "color": "#000000"
                }
              },
              "style": {
                "verticalAlign": "center",
                "format": "\"$\"#,##0",
                "border": {
                  "left": {
                    "clr": "#000000",
                    "type": "thin"
                  },
                  "right": {
                    "clr": "#000000",
                    "type": "thin"
                  },
                  "bottom": {
                    "clr": "#000000",
                    "type": "thin"
                  },
                  "top": {
                    "clr": "#000000",
                    "type": "thin"
                  }
                }
              },
              "actualIndex": 2
            }
          ]
        },
        {
          "index": 13,
          "visible": true,
          "height": 20,
          "#cells": [
            {
              "ref": "A14",
              "value": "Owner's",
              "index": 0,
              "fontAttrs": {
                "def": {
                  "family": "Calibri",
                  "size": 11,
                  "color": "#000000"
                }
              },
              "style": {
                "verticalAlign": "center",
                "border": {
                  "left": {
                    "clr": "#000000",
                    "type": "thin"
                  },
                  "right": {
                    "clr": "#000000",
                    "type": "thin"
                  },
                  "bottom": {
                    "clr": "#000000",
                    "type": "thin"
                  },
                  "top": {
                    "clr": "#000000",
                    "type": "thin"
                  }
                }
              },
              "actualIndex": 0
            },
            {
              "ref": "B14",
              "value": 114920,
              "index": 1,
              "fontAttrs": {
                "def": {
                  "family": "Calibri",
                  "size": 11,
                  "color": "#000000"
                }
              },
              "style": {
                "verticalAlign": "center",
                "format": "\"$\"#,##0",
                "border": {
                  "left": {
                    "clr": "#000000",
                    "type": "thin"
                  },
                  "right": {
                    "clr": "#000000",
                    "type": "thin"
                  },
                  "bottom": {
                    "clr": "#000000",
                    "type": "thin"
                  },
                  "top": {
                    "clr": "#000000",
                    "type": "thin"
                  }
                }
              },
              "actualIndex": 1
            },
            {
              "ref": "C14",
              "index": 2,
              "fontAttrs": {
                "def": {
                  "family": "Calibri",
                  "size": 11,
                  "color": "#000000"
                }
              },
              "style": {
                "verticalAlign": "bottom",
                "format": "\"$\"#,##0",
                "border": {
                  "left": {
                    "clr": "#000000",
                    "type": "thin"
                  },
                  "right": {
                    "clr": "#000000",
                    "type": "thin"
                  },
                  "bottom": {
                    "clr": "#000000",
                    "type": "thin"
                  },
                  "top": {
                    "clr": "#000000",
                    "type": "thin"
                  }
                }
              },
              "actualIndex": 2
            }
          ]
        },
        {
          "index": 14,
          "visible": true,
          "height": 20,
          "#cells": [
            {
              "ref": "A15",
              "index": 0,
              "fontAttrs": {
                "def": {
                  "family": "Calibri",
                  "size": 11,
                  "color": "#000000"
                }
              },
              "style": {
                "verticalAlign": "center",
                "border": {
                  "left": {
                    "clr": "#000000",
                    "type": "thin"
                  },
                  "right": {
                    "clr": "#000000",
                    "type": "thin"
                  },
                  "bottom": {
                    "clr": "#000000",
                    "type": "thin"
                  },
                  "top": {
                    "clr": "#000000",
                    "type": "thin"
                  }
                }
              },
              "actualIndex": 0
            },
            {
              "ref": "B15",
              "index": 1,
              "fontAttrs": {
                "def": {
                  "family": "Calibri",
                  "size": 11,
                  "color": "#000000"
                }
              },
              "style": {
                "verticalAlign": "center",
                "border": {
                  "left": {
                    "clr": "#000000",
                    "type": "thin"
                  },
                  "right": {
                    "clr": "#000000",
                    "type": "thin"
                  },
                  "bottom": {
                    "clr": "#000000",
                    "type": "thin"
                  },
                  "top": {
                    "clr": "#000000",
                    "type": "thin"
                  }
                }
              },
              "actualIndex": 1
            },
            {
              "ref": "C15",
              "index": 2,
              "fontAttrs": {
                "def": {
                  "family": "Calibri",
                  "size": 11,
                  "color": "#000000"
                }
              },
              "style": {
                "verticalAlign": "center",
                "format": "\"$\"#,##0",
                "border": {
                  "left": {
                    "clr": "#000000",
                    "type": "thin"
                  },
                  "right": {
                    "clr": "#000000",
                    "type": "thin"
                  },
                  "bottom": {
                    "clr": "#000000",
                    "type": "thin"
                  },
                  "top": {
                    "clr": "#000000",
                    "type": "thin"
                  }
                }
              },
              "actualIndex": 2
            }
          ]
        },
        {
          "index": 15,
          "visible": true,
          "height": 20,
          "#cells": [
            {
              "ref": "A16",
              "index": 0,
              "fontAttrs": {
                "def": {
                  "family": "Calibri",
                  "size": 11,
                  "color": "#000000"
                }
              },
              "style": {
                "verticalAlign": "center",
                "border": {
                  "left": {
                    "clr": "#000000",
                    "type": "thin"
                  },
                  "right": {
                    "clr": "#000000",
                    "type": "thin"
                  },
                  "bottom": {
                    "clr": "#000000",
                    "type": "thin"
                  },
                  "top": {
                    "clr": "#000000",
                    "type": "thin"
                  }
                }
              },
              "actualIndex": 0
            },
            {
              "ref": "B16",
              "index": 1,
              "fontAttrs": {
                "def": {
                  "family": "Calibri",
                  "size": 11,
                  "color": "#000000"
                }
              },
              "style": {
                "verticalAlign": "center",
                "format": "\"$\"#,##0",
                "border": {
                  "left": {
                    "clr": "#000000",
                    "type": "thin"
                  },
                  "right": {
                    "clr": "#000000",
                    "type": "thin"
                  },
                  "bottom": {
                    "clr": "#000000",
                    "type": "thin"
                  },
                  "top": {
                    "clr": "#000000",
                    "type": "thin"
                  }
                }
              },
              "actualIndex": 1
            },
            {
              "ref": "C16",
              "index": 2,
              "fontAttrs": {
                "def": {
                  "family": "Calibri",
                  "size": 11,
                  "color": "#000000"
                }
              },
              "style": {
                "verticalAlign": "bottom",
                "format": "\"$\"#,##0",
                "border": {
                  "left": {
                    "clr": "#000000",
                    "type": "thin"
                  },
                  "right": {
                    "clr": "#000000",
                    "type": "thin"
                  },
                  "bottom": {
                    "clr": "#000000",
                    "type": "thin"
                  },
                  "top": {
                    "clr": "#000000",
                    "type": "thin"
                  }
                }
              },
              "actualIndex": 2
            }
          ]
        },
        {
          "index": 16,
          "visible": true,
          "height": 20,
          "#cells": [
            {
              "ref": "A17",
              "value": "Rent Expense",
              "index": 0,
              "fontAttrs": {
                "def": {
                  "family": "Calibri",
                  "size": 11,
                  "color": "#000000"
                }
              },
              "style": {
                "verticalAlign": "center",
                "border": {
                  "left": {
                    "clr": "#000000",
                    "type": "thin"
                  },
                  "right": {
                    "clr": "#000000",
                    "type": "thin"
                  },
                  "bottom": {
                    "clr": "#000000",
                    "type": "thin"
                  },
                  "top": {
                    "clr": "#000000",
                    "type": "thin"
                  }
                }
              },
              "actualIndex": 0
            },
            {
              "ref": "B17",
              "value": 46870,
              "index": 1,
              "fontAttrs": {
                "def": {
                  "family": "Calibri",
                  "size": 11,
                  "color": "#000000"
                }
              },
              "style": {
                "verticalAlign": "center",
                "format": "\"$\"#,##0",
                "border": {
                  "left": {
                    "clr": "#000000",
                    "type": "thin"
                  },
                  "right": {
                    "clr": "#000000",
                    "type": "thin"
                  },
                  "bottom": {
                    "clr": "#000000",
                    "type": "thin"
                  },
                  "top": {
                    "clr": "#000000",
                    "type": "thin"
                  }
                }
              },
              "actualIndex": 1
            },
            {
              "ref": "C17",
              "index": 2,
              "fontAttrs": {
                "def": {
                  "family": "Calibri",
                  "size": 11,
                  "color": "#000000"
                }
              },
              "style": {
                "verticalAlign": "bottom",
                "format": "\"$\"#,##0",
                "border": {
                  "left": {
                    "clr": "#000000",
                    "type": "thin"
                  },
                  "right": {
                    "clr": "#000000",
                    "type": "thin"
                  },
                  "bottom": {
                    "clr": "#000000",
                    "type": "thin"
                  },
                  "top": {
                    "clr": "#000000",
                    "type": "thin"
                  }
                }
              },
              "actualIndex": 2
            }
          ]
        },
        {
          "index": 17,
          "visible": true,
          "height": 20,
          "#cells": [
            {
              "ref": "A18",
              "value": "Advertising Expense",
              "index": 0,
              "fontAttrs": {
                "def": {
                  "family": "Calibri",
                  "size": 11,
                  "color": "#000000"
                }
              },
              "style": {
                "verticalAlign": "center",
                "border": {
                  "left": {
                    "clr": "#000000",
                    "type": "thin"
                  },
                  "right": {
                    "clr": "#000000",
                    "type": "thin"
                  },
                  "bottom": {
                    "clr": "#000000",
                    "type": "thin"
                  },
                  "top": {
                    "clr": "#000000",
                    "type": "thin"
                  }
                }
              },
              "actualIndex": 0
            },
            {
              "ref": "B18",
              "value": 22930,
              "index": 1,
              "fontAttrs": {
                "def": {
                  "family": "Calibri",
                  "size": 11,
                  "color": "#000000"
                }
              },
              "style": {
                "verticalAlign": "center",
                "format": "\"$\"#,##0",
                "border": {
                  "left": {
                    "clr": "#000000",
                    "type": "thin"
                  },
                  "right": {
                    "clr": "#000000",
                    "type": "thin"
                  },
                  "bottom": {
                    "clr": "#000000",
                    "type": "thin"
                  },
                  "top": {
                    "clr": "#000000",
                    "type": "thin"
                  }
                }
              },
              "actualIndex": 1
            },
            {
              "ref": "C18",
              "index": 2,
              "fontAttrs": {
                "def": {
                  "family": "Calibri",
                  "size": 11,
                  "color": "#000000"
                }
              },
              "style": {
                "verticalAlign": "bottom",
                "format": "\"$\"#,##0",
                "border": {
                  "left": {
                    "clr": "#000000",
                    "type": "thin"
                  },
                  "right": {
                    "clr": "#000000",
                    "type": "thin"
                  },
                  "bottom": {
                    "clr": "#000000",
                    "type": "thin"
                  },
                  "top": {
                    "clr": "#000000",
                    "type": "thin"
                  }
                }
              },
              "actualIndex": 2
            }
          ]
        },
        {
          "index": 18,
          "visible": true,
          "height": 20,
          "#cells": [
            {
              "ref": "A19",
              "value": "Misc. Expense",
              "index": 0,
              "fontAttrs": {
                "def": {
                  "family": "Calibri",
                  "size": 11,
                  "color": "#000000"
                }
              },
              "style": {
                "verticalAlign": "center",
                "border": {
                  "left": {
                    "clr": "#000000",
                    "type": "thin"
                  },
                  "right": {
                    "clr": "#000000",
                    "type": "thin"
                  },
                  "bottom": {
                    "clr": "#000000",
                    "type": "thin"
                  },
                  "top": {
                    "clr": "#000000",
                    "type": "thin"
                  }
                }
              },
              "actualIndex": 0
            },
            {
              "ref": "B19",
              "value": 4840,
              "index": 1,
              "fontAttrs": {
                "def": {
                  "family": "Calibri",
                  "size": 11,
                  "color": "#000000"
                }
              },
              "style": {
                "verticalAlign": "center",
                "format": "\"$\"#,##0",
                "border": {
                  "left": {
                    "clr": "#000000",
                    "type": "thin"
                  },
                  "right": {
                    "clr": "#000000",
                    "type": "thin"
                  },
                  "bottom": {
                    "clr": "#000000",
                    "type": "thin"
                  },
                  "top": {
                    "clr": "#000000",
                    "type": "thin"
                  }
                }
              },
              "actualIndex": 1
            },
            {
              "ref": "C19",
              "index": 2,
              "fontAttrs": {
                "def": {
                  "family": "Calibri",
                  "size": 11,
                  "color": "#000000"
                }
              },
              "style": {
                "verticalAlign": "bottom",
                "format": "\"$\"#,##0",
                "border": {
                  "left": {
                    "clr": "#000000",
                    "type": "thin"
                  },
                  "right": {
                    "clr": "#000000",
                    "type": "thin"
                  },
                  "bottom": {
                    "clr": "#000000",
                    "type": "thin"
                  },
                  "top": {
                    "clr": "#000000",
                    "type": "thin"
                  }
                }
              },
              "actualIndex": 2
            }
          ]
        },
        {
          "index": 19,
          "visible": true,
          "height": 20,
          "#cells": [
            {
              "ref": "A20",
              "value": "Totals",
              "index": 0,
              "fontAttrs": {
                "def": {
                  "family": "Calibri",
                  "size": 11,
                  "color": "#000000"
                }
              },
              "style": {
                "verticalAlign": "bottom",
                "border": {
                  "left": {
                    "clr": "#000000",
                    "type": "thin"
                  },
                  "right": {
                    "clr": "#000000",
                    "type": "thin"
                  },
                  "bottom": {
                    "clr": "#000000",
                    "type": "thin"
                  },
                  "top": {
                    "clr": "#000000",
                    "type": "thin"
                  }
                }
              },
              "actualIndex": 0
            },
            {
              "ref": "B20",
              "value": 669180,
              "index": 1,
              "fontAttrs": {
                "def": {
                  "family": "Calibri",
                  "size": 11,
                  "color": "#000000"
                }
              },
              "style": {
                "textAlign": "right",
                "verticalAlign": "bottom",
                "format": "\"$\"#,##0.00",
                "border": {
                  "left": {
                    "clr": "#000000",
                    "type": "thin"
                  },
                  "right": {
                    "clr": "#000000",
                    "type": "thin"
                  },
                  "bottom": {
                    "clr": "#000000",
                    "type": "thin"
                  },
                  "top": {
                    "clr": "#000000",
                    "type": "thin"
                  }
                }
              },
              "actualIndex": 1
            },
            {
              "ref": "C20",
              "value": 669180,
              "index": 2,
              "fontAttrs": {
                "def": {
                  "family": "Calibri",
                  "size": 11,
                  "color": "#000000"
                }
              },
              "style": {
                "textAlign": "right",
                "verticalAlign": "bottom",
                "format": "\"$\"#,##0.00",
                "border": {
                  "left": {
                    "clr": "#000000",
                    "type": "thin"
                  },
                  "right": {
                    "clr": "#000000",
                    "type": "thin"
                  },
                  "bottom": {
                    "clr": "#000000",
                    "type": "thin"
                  },
                  "top": {
                    "clr": "#000000",
                    "type": "thin"
                  }
                }
              },
              "actualIndex": 2
            }
          ]
        }
      ],
      "#columns": [
        {
          "visible": true,
          "width": 179,
          "index": 0
        },
        {
          "visible": true,
          "width": 139,
          "index": 1
        },
        {
          "visible": true,
          "width": 132,
          "index": 2
        },
        {
          "visible": true,
          "width": 101,
          "index": 3
        },
        {
          "visible": true,
          "width": 101,
          "index": 4
        },
        {
          "visible": true,
          "width": 101,
          "index": 5
        },
        {
          "visible": true,
          "width": 101,
          "index": 6
        },
        {
          "visible": true,
          "width": 101,
          "index": 7
        },
        {
          "visible": true,
          "width": 101,
          "index": 8
        },
        {
          "visible": true,
          "width": 101,
          "index": 9
        },
        {
          "visible": true,
          "width": 101,
          "index": 10
        },
        {
          "visible": true,
          "width": 101,
          "index": 11
        },
        {
          "visible": true,
          "width": 101,
          "index": 12
        },
        {
          "visible": true,
          "width": 101,
          "index": 13
        },
        {
          "visible": true,
          "width": 101,
          "index": 14
        },
        {
          "visible": true,
          "width": 101,
          "index": 15
        },
        {
          "visible": true,
          "width": 101,
          "index": 16
        },
        {
          "visible": true,
          "width": 101,
          "index": 17
        },
        {
          "visible": true,
          "width": 101,
          "index": 18
        },
        {
          "visible": true,
          "width": 101,
          "index": 19
        },
        {
          "visible": true,
          "width": 101,
          "index": 20
        },
        {
          "visible": true,
          "width": 101,
          "index": 21
        },
        {
          "visible": true,
          "width": 101,
          "index": 22
        },
        {
          "visible": true,
          "width": 101,
          "index": 23
        },
        {
          "visible": true,
          "width": 101,
          "index": 24
        },
        {
          "visible": true,
          "width": 101,
          "index": 25
        },
        {
          "visible": true,
          "width": 101,
          "index": 26
        },
        {
          "visible": true,
          "width": 101,
          "index": 27
        },
        {
          "visible": true,
          "width": 101,
          "index": 28
        },
        {
          "visible": true,
          "width": 101,
          "index": 29
        },
        {
          "visible": true,
          "width": 101,
          "index": 30
        },
        {
          "visible": true,
          "width": 101,
          "index": 31
        },
        {
          "visible": true,
          "width": 101,
          "index": 32
        },
        {
          "visible": true,
          "width": 101,
          "index": 33
        },
        {
          "visible": true,
          "width": 101,
          "index": 34
        },
        {
          "visible": true,
          "width": 101,
          "index": 35
        },
        {
          "visible": true,
          "width": 101,
          "index": 36
        },
        {
          "visible": true,
          "width": 101,
          "index": 37
        },
        {
          "visible": true,
          "width": 101,
          "index": 38
        },
        {
          "visible": true,
          "width": 101,
          "index": 39
        },
        {
          "visible": true,
          "width": 101,
          "index": 40
        },
        {
          "visible": true,
          "width": 101,
          "index": 41
        },
        {
          "visible": true,
          "width": 101,
          "index": 42
        },
        {
          "visible": true,
          "width": 101,
          "index": 43
        },
        {
          "visible": true,
          "width": 101,
          "index": 44
        },
        {
          "visible": true,
          "width": 101,
          "index": 45
        },
        {
          "visible": true,
          "width": 101,
          "index": 46
        },
        {
          "visible": true,
          "width": 101,
          "index": 47
        },
        {
          "visible": true,
          "width": 101,
          "index": 48
        },
        {
          "visible": true,
          "width": 101,
          "index": 49
        }
      ],
      "#mergedCells": [
        "A1:C1",
        "A2:C2",
        "A3:C3",
        "B4:C4"
      ]
    }
  ]
}