{
  "activeSheet": "Solution",
  "defaults": {
    "rowHeight": 21,
    "columnWidth": 106
  },
  "#sheets": [
    {
      "name": "Solution",
      "id": "sid1PpMYg",
      "selection": "A1:D1",
      "activeCell": "C5",
      "frozenRows": 0,
      "frozenColumns": 0,
      "showGridLines": true,
      "locked": false,
      "maxRowIndexEdited": 200,
      "maxColIndexEdited": 50,
      "defaults": {
        "cellFontAttrs": {
          "family": "Arial",
          "size": "12"
        }
      },
      "#rows": [
        {
          "visible": true,
          "index": 0,
          "height": 19.2,
          "#cells": [
            {
              "value": "Fantasy Group",
              "index": 0,
              "ref": "A1",
              "style": {
                "background": "#d3d3d3",
                "textAlign": "center",
                "verticalAlign": "bottom",
                "border": {
                  "left": {
                    "clr": "#000000",
                    "type": "thin"
                  },
                  "top": {
                    "clr": "#000000",
                    "type": "thin"
                  },
                  "bottom": {
                    "clr": "#000000",
                    "type": "thin"
                  },
                  "right": {
                    "clr": "#000000",
                    "type": "thin"
                  }
                }
              },
              "fontAttrs": {
                "def": {
                  "color": "#000000",
                  "family": "Calibri",
                  "size": 11
                }
              }
            },
            {
              "index": 1,
              "ref": "B1",
              "style": {
                "background": "#d3d3d3",
                "verticalAlign": "bottom",
                "border": {
                  "left": {
                    "clr": "#000000",
                    "type": "thin"
                  },
                  "top": {
                    "clr": "#000000",
                    "type": "thin"
                  },
                  "bottom": {
                    "clr": "#000000",
                    "type": "thin"
                  },
                  "right": {
                    "clr": "#000000",
                    "type": "thin"
                  }
                }
              },
              "fontAttrs": {
                "def": {
                  "color": "#000000",
                  "family": "Calibri",
                  "size": 11
                }
              }
            },
            {
              "index": 2,
              "ref": "C1",
              "style": {
                "background": "#d3d3d3",
                "verticalAlign": "bottom",
                "border": {
                  "left": {
                    "clr": "#000000",
                    "type": "thin"
                  },
                  "top": {
                    "clr": "#000000",
                    "type": "thin"
                  },
                  "bottom": {
                    "clr": "#000000",
                    "type": "thin"
                  },
                  "right": {
                    "clr": "#000000",
                    "type": "thin"
                  }
                }
              },
              "fontAttrs": {
                "def": {
                  "color": "#000000",
                  "family": "Calibri",
                  "size": 11
                }
              }
            },
            {
              "index": 3,
              "ref": "D1",
              "style": {
                "background": "#d3d3d3",
                "verticalAlign": "bottom",
                "border": {
                  "left": {
                    "clr": "#000000",
                    "type": "thin"
                  },
                  "top": {
                    "clr": "#000000",
                    "type": "thin"
                  },
                  "bottom": {
                    "clr": "#000000",
                    "type": "thin"
                  },
                  "right": {
                    "clr": "#000000",
                    "type": "thin"
                  }
                }
              },
              "fontAttrs": {
                "def": {
                  "color": "#000000",
                  "family": "Calibri",
                  "size": 11
                }
              }
            }
          ]
        },
        {
          "visible": true,
          "index": 1,
          "height": 19.2,
          "#cells": [
            {
              "value": "Trial Balance",
              "index": 0,
              "ref": "A2",
              "style": {
                "background": "#d3d3d3",
                "textAlign": "center",
                "verticalAlign": "bottom",
                "border": {
                  "left": {
                    "clr": "#000000",
                    "type": "thin"
                  },
                  "top": {
                    "clr": "#000000",
                    "type": "thin"
                  },
                  "bottom": {
                    "clr": "#000000",
                    "type": "thin"
                  },
                  "right": {
                    "clr": "#000000",
                    "type": "thin"
                  }
                }
              },
              "fontAttrs": {
                "def": {
                  "color": "#000000",
                  "family": "Calibri",
                  "size": 11
                }
              }
            },
            {
              "index": 1,
              "ref": "B2",
              "style": {
                "background": "#d3d3d3",
                "verticalAlign": "bottom",
                "border": {
                  "left": {
                    "clr": "#000000",
                    "type": "thin"
                  },
                  "top": {
                    "clr": "#000000",
                    "type": "thin"
                  },
                  "bottom": {
                    "clr": "#000000",
                    "type": "thin"
                  },
                  "right": {
                    "clr": "#000000",
                    "type": "thin"
                  }
                }
              },
              "fontAttrs": {
                "def": {
                  "color": "#000000",
                  "family": "Calibri",
                  "size": 11
                }
              }
            },
            {
              "index": 2,
              "ref": "C2",
              "style": {
                "background": "#d3d3d3",
                "verticalAlign": "bottom",
                "border": {
                  "left": {
                    "clr": "#000000",
                    "type": "thin"
                  },
                  "top": {
                    "clr": "#000000",
                    "type": "thin"
                  },
                  "bottom": {
                    "clr": "#000000",
                    "type": "thin"
                  },
                  "right": {
                    "clr": "#000000",
                    "type": "thin"
                  }
                }
              },
              "fontAttrs": {
                "def": {
                  "color": "#000000",
                  "family": "Calibri",
                  "size": 11
                }
              }
            },
            {
              "index": 3,
              "ref": "D2",
              "style": {
                "background": "#d3d3d3",
                "verticalAlign": "bottom",
                "border": {
                  "left": {
                    "clr": "#000000",
                    "type": "thin"
                  },
                  "top": {
                    "clr": "#000000",
                    "type": "thin"
                  },
                  "bottom": {
                    "clr": "#000000",
                    "type": "thin"
                  },
                  "right": {
                    "clr": "#000000",
                    "type": "thin"
                  }
                }
              },
              "fontAttrs": {
                "def": {
                  "color": "#000000",
                  "family": "Calibri",
                  "size": 11
                }
              }
            }
          ]
        },
        {
          "visible": true,
          "index": 2,
          "height": 19.2,
          "#cells": [
            {
              "value": 43190,
              "index": 0,
              "ref": "A3",
              "style": {
                "background": "#d3d3d3",
                "textAlign": "center",
                "format": "mmmm\\ d\\,\\ yyyy",
                "verticalAlign": "bottom",
                "border": {
                  "left": {
                    "clr": "#000000",
                    "type": "thin"
                  },
                  "top": {
                    "clr": "#000000",
                    "type": "thin"
                  },
                  "bottom": {
                    "clr": "#000000",
                    "type": "thin"
                  },
                  "right": {
                    "clr": "#000000",
                    "type": "thin"
                  }
                }
              },
              "fontAttrs": {
                "def": {
                  "color": "#000000",
                  "family": "Calibri",
                  "size": 11
                }
              }
            },
            {
              "index": 1,
              "ref": "B3",
              "style": {
                "background": "#d3d3d3",
                "format": "mmmm\\ d\\,\\ yyyy",
                "verticalAlign": "bottom",
                "border": {
                  "left": {
                    "clr": "#000000",
                    "type": "thin"
                  },
                  "top": {
                    "clr": "#000000",
                    "type": "thin"
                  },
                  "bottom": {
                    "clr": "#000000",
                    "type": "thin"
                  },
                  "right": {
                    "clr": "#000000",
                    "type": "thin"
                  }
                }
              },
              "fontAttrs": {
                "def": {
                  "color": "#000000",
                  "family": "Calibri",
                  "size": 11
                }
              }
            },
            {
              "index": 2,
              "ref": "C3",
              "style": {
                "background": "#d3d3d3",
                "format": "mmmm\\ d\\,\\ yyyy",
                "verticalAlign": "bottom",
                "border": {
                  "left": {
                    "clr": "#000000",
                    "type": "thin"
                  },
                  "top": {
                    "clr": "#000000",
                    "type": "thin"
                  },
                  "bottom": {
                    "clr": "#000000",
                    "type": "thin"
                  },
                  "right": {
                    "clr": "#000000",
                    "type": "thin"
                  }
                }
              },
              "fontAttrs": {
                "def": {
                  "color": "#000000",
                  "family": "Calibri",
                  "size": 11
                }
              }
            },
            {
              "index": 3,
              "ref": "D3",
              "style": {
                "background": "#d3d3d3",
                "format": "mmmm\\ d\\,\\ yyyy",
                "verticalAlign": "bottom",
                "border": {
                  "left": {
                    "clr": "#000000",
                    "type": "thin"
                  },
                  "top": {
                    "clr": "#000000",
                    "type": "thin"
                  },
                  "bottom": {
                    "clr": "#000000",
                    "type": "thin"
                  },
                  "right": {
                    "clr": "#000000",
                    "type": "thin"
                  }
                }
              },
              "fontAttrs": {
                "def": {
                  "color": "#000000",
                  "family": "Calibri",
                  "size": 11
                }
              }
            }
          ]
        },
        {
          "visible": true,
          "index": 3,
          "height": 19.2,
          "#cells": [
            {
              "index": 0,
              "ref": "A4",
              "style": {
                "background": "#d3d3d3",
                "verticalAlign": "bottom",
                "border": {
                  "left": {
                    "clr": "#000000",
                    "type": "thin"
                  },
                  "top": {
                    "clr": "#000000",
                    "type": "thin"
                  },
                  "bottom": {
                    "clr": "#000000",
                    "type": "thin"
                  },
                  "right": {
                    "clr": "#000000",
                    "type": "thin"
                  }
                }
              },
              "fontAttrs": {
                "def": {
                  "color": "#000000",
                  "family": "Calibri",
                  "size": 11
                }
              }
            },
            {
              "value": "Balance",
              "index": 1,
              "ref": "B4",
              "style": {
                "background": "#d3d3d3",
                "textAlign": "center",
                "verticalAlign": "bottom",
                "border": {
                  "left": {
                    "clr": "#000000",
                    "type": "thin"
                  },
                  "top": {
                    "clr": "#000000",
                    "type": "thin"
                  },
                  "bottom": {
                    "clr": "#000000",
                    "type": "thin"
                  },
                  "right": {
                    "clr": "#000000",
                    "type": "thin"
                  }
                }
              },
              "fontAttrs": {
                "def": {
                  "color": "#000000",
                  "family": "Calibri",
                  "size": 11
                }
              }
            },
            {
              "index": 2,
              "ref": "C4",
              "style": {
                "background": "#d3d3d3",
                "textAlign": "center",
                "verticalAlign": "bottom",
                "border": {
                  "left": {
                    "clr": "#000000",
                    "type": "thin"
                  },
                  "top": {
                    "clr": "#000000",
                    "type": "thin"
                  },
                  "bottom": {
                    "clr": "#000000",
                    "type": "thin"
                  },
                  "right": {
                    "clr": "#000000",
                    "type": "thin"
                  }
                }
              },
              "fontAttrs": {
                "def": {
                  "color": "#000000",
                  "family": "Calibri",
                  "size": 11
                }
              }
            },
            {
              "index": 3,
              "ref": "D4",
              "style": {
                "background": "#d3d3d3",
                "verticalAlign": "bottom",
                "border": {
                  "left": {
                    "clr": "#000000",
                    "type": "thin"
                  },
                  "top": {
                    "clr": "#000000",
                    "type": "thin"
                  },
                  "bottom": {
                    "clr": "#000000",
                    "type": "thin"
                  },
                  "right": {
                    "clr": "#000000",
                    "type": "thin"
                  }
                }
              },
              "fontAttrs": {
                "def": {
                  "color": "#000000",
                  "family": "Calibri",
                  "size": 11
                }
              }
            }
          ]
        },
        {
          "visible": true,
          "index": 4,
          "height": 19.2,
          "#cells": [
            {
              "value": "Account Title",
              "index": 0,
              "ref": "A5",
              "style": {
                "background": "#d3d3d3",
                "verticalAlign": "bottom",
                "border": {
                  "left": {
                    "clr": "#000000",
                    "type": "thin"
                  },
                  "top": {
                    "clr": "#000000",
                    "type": "thin"
                  },
                  "bottom": {
                    "clr": "#000000",
                    "type": "thin"
                  },
                  "right": {
                    "clr": "#000000",
                    "type": "thin"
                  }
                }
              },
              "fontAttrs": {
                "def": {
                  "color": "#000000",
                  "family": "Calibri",
                  "size": 11
                }
              }
            },
            {
              "value": "Debit",
              "index": 1,
              "ref": "B5",
              "style": {
                "background": "#d3d3d3",
                "textAlign": "center",
                "verticalAlign": "bottom",
                "border": {
                  "left": {
                    "clr": "#000000",
                    "type": "thin"
                  },
                  "top": {
                    "clr": "#000000",
                    "type": "thin"
                  },
                  "bottom": {
                    "clr": "#000000",
                    "type": "thin"
                  },
                  "right": {
                    "clr": "#000000",
                    "type": "thin"
                  }
                }
              },
              "fontAttrs": {
                "def": {
                  "color": "#000000",
                  "family": "Calibri",
                  "size": 11
                }
              }
            },
            {
              "index": 2,
              "ref": "C5",
              "style": {
                "background": "#d3d3d3",
                "textAlign": "center",
                "verticalAlign": "bottom",
                "border": {
                  "left": {
                    "clr": "#000000",
                    "type": "thin"
                  },
                  "top": {
                    "clr": "#000000",
                    "type": "thin"
                  },
                  "bottom": {
                    "clr": "#000000",
                    "type": "thin"
                  },
                  "right": {
                    "clr": "#000000",
                    "type": "thin"
                  }
                }
              },
              "fontAttrs": {
                "def": {
                  "color": "#000000",
                  "family": "Calibri",
                  "size": 11
                }
              }
            },
            {
              "value": "Credit",
              "index": 3,
              "ref": "D5",
              "style": {
                "background": "#d3d3d3",
                "textAlign": "center",
                "verticalAlign": "bottom",
                "border": {
                  "left": {
                    "clr": "#000000",
                    "type": "thin"
                  },
                  "top": {
                    "clr": "#000000",
                    "type": "thin"
                  },
                  "bottom": {
                    "clr": "#000000",
                    "type": "thin"
                  },
                  "right": {
                    "clr": "#000000",
                    "type": "thin"
                  }
                }
              },
              "fontAttrs": {
                "def": {
                  "color": "#000000",
                  "family": "Calibri",
                  "size": 11
                }
              }
            }
          ]
        },
        {
          "visible": true,
          "index": 5,
          "#cells": [
            {
              "value": "Cash",
              "index": 0,
              "ref": "A6",
              "style": {
                "verticalAlign": "bottom",
                "border": {
                  "left": {
                    "clr": "#000000",
                    "type": "thin"
                  },
                  "top": {
                    "clr": "#000000",
                    "type": "thin"
                  },
                  "bottom": {
                    "clr": "#000000",
                    "type": "thin"
                  },
                  "right": {
                    "clr": "#000000",
                    "type": "thin"
                  }
                }
              },
              "fontAttrs": {
                "def": {
                  "color": "#000000",
                  "size": 10
                }
              }
            },
            {
              "value": 17300,
              "index": 1,
              "ref": "B6",
              "style": {
                "format": "\"$\"#,##0",
                "verticalAlign": "center",
                "border": {
                  "left": {
                    "clr": "#000000",
                    "type": "thin"
                  },
                  "top": {
                    "clr": "#000000",
                    "type": "thin"
                  },
                  "bottom": {
                    "clr": "#000000",
                    "type": "thin"
                  },
                  "right": {
                    "clr": "#000000",
                    "type": "thin"
                  }
                }
              },
              "fontAttrs": {
                "def": {
                  "color": "#000000",
                  "family": "Calibri",
                  "size": 11
                }
              }
            },
            {
              "index": 2,
              "ref": "C6",
              "style": {
                "format": "\"$\"#,##0",
                "verticalAlign": "center",
                "border": {
                  "left": {
                    "clr": "#000000",
                    "type": "thin"
                  },
                  "top": {
                    "clr": "#000000",
                    "type": "thin"
                  },
                  "bottom": {
                    "clr": "#000000",
                    "type": "thin"
                  },
                  "right": {
                    "clr": "#000000",
                    "type": "thin"
                  }
                }
              },
              "fontAttrs": {
                "def": {
                  "color": "#000000",
                  "family": "Calibri",
                  "size": 11
                }
              }
            },
            {
              "index": 3,
              "ref": "D6",
              "style": {
                "format": "\"$\"#,##0",
                "verticalAlign": "bottom",
                "border": {
                  "left": {
                    "clr": "#000000",
                    "type": "thin"
                  },
                  "top": {
                    "clr": "#000000",
                    "type": "thin"
                  },
                  "bottom": {
                    "clr": "#000000",
                    "type": "thin"
                  },
                  "right": {
                    "clr": "#000000",
                    "type": "thin"
                  }
                }
              },
              "fontAttrs": {
                "def": {
                  "color": "#000000",
                  "size": 10
                }
              }
            }
          ]
        },
        {
          "visible": true,
          "index": 6,
          "height": 19.2,
          "#cells": [
            {
              "value": "Accounts Receivable",
              "index": 0,
              "ref": "A7",
              "style": {
                "verticalAlign": "center",
                "border": {
                  "left": {
                    "clr": "#000000",
                    "type": "thin"
                  },
                  "top": {
                    "clr": "#000000",
                    "type": "thin"
                  },
                  "bottom": {
                    "clr": "#000000",
                    "type": "thin"
                  },
                  "right": {
                    "clr": "#000000",
                    "type": "thin"
                  }
                }
              },
              "fontAttrs": {
                "def": {
                  "color": "#000000",
                  "family": "Calibri",
                  "size": 11
                }
              }
            },
            {
              "value": 33550,
              "index": 1,
              "ref": "B7",
              "style": {
                "format": "\"$\"#,##0",
                "verticalAlign": "center",
                "border": {
                  "left": {
                    "clr": "#000000",
                    "type": "thin"
                  },
                  "top": {
                    "clr": "#000000",
                    "type": "thin"
                  },
                  "bottom": {
                    "clr": "#000000",
                    "type": "thin"
                  },
                  "right": {
                    "clr": "#000000",
                    "type": "thin"
                  }
                }
              },
              "fontAttrs": {
                "def": {
                  "color": "#000000",
                  "family": "Calibri",
                  "size": 11
                }
              }
            },
            {
              "index": 2,
              "ref": "C7",
              "style": {
                "format": "\"$\"#,##0",
                "verticalAlign": "center",
                "border": {
                  "left": {
                    "clr": "#000000",
                    "type": "thin"
                  },
                  "top": {
                    "clr": "#000000",
                    "type": "thin"
                  },
                  "bottom": {
                    "clr": "#000000",
                    "type": "thin"
                  },
                  "right": {
                    "clr": "#000000",
                    "type": "thin"
                  }
                }
              },
              "fontAttrs": {
                "def": {
                  "color": "#000000",
                  "family": "Calibri",
                  "size": 11
                }
              }
            },
            {
              "index": 3,
              "ref": "D7",
              "style": {
                "format": "\"$\"#,##0",
                "verticalAlign": "bottom",
                "border": {
                  "left": {
                    "clr": "#000000",
                    "type": "thin"
                  },
                  "top": {
                    "clr": "#000000",
                    "type": "thin"
                  },
                  "bottom": {
                    "clr": "#000000",
                    "type": "thin"
                  },
                  "right": {
                    "clr": "#000000",
                    "type": "thin"
                  }
                }
              },
              "fontAttrs": {
                "def": {
                  "color": "#000000",
                  "size": 10
                }
              }
            }
          ]
        },
        {
          "visible": true,
          "index": 7,
          "height": 19.2,
          "#cells": [
            {
              "value": "Supplies",
              "index": 0,
              "ref": "A8",
              "style": {
                "verticalAlign": "center",
                "border": {
                  "left": {
                    "clr": "#000000",
                    "type": "thin"
                  },
                  "top": {
                    "clr": "#000000",
                    "type": "thin"
                  },
                  "bottom": {
                    "clr": "#000000",
                    "type": "thin"
                  },
                  "right": {
                    "clr": "#000000",
                    "type": "thin"
                  }
                }
              },
              "fontAttrs": {
                "def": {
                  "color": "#000000",
                  "family": "Calibri",
                  "size": 11
                }
              }
            },
            {
              "value": 6910,
              "index": 1,
              "ref": "B8",
              "style": {
                "format": "\"$\"#,##0",
                "verticalAlign": "center",
                "border": {
                  "left": {
                    "clr": "#000000",
                    "type": "thin"
                  },
                  "top": {
                    "clr": "#000000",
                    "type": "thin"
                  },
                  "bottom": {
                    "clr": "#000000",
                    "type": "thin"
                  },
                  "right": {
                    "clr": "#000000",
                    "type": "thin"
                  }
                }
              },
              "fontAttrs": {
                "def": {
                  "color": "#000000",
                  "family": "Calibri",
                  "size": 11
                }
              }
            },
            {
              "index": 2,
              "ref": "C8",
              "style": {
                "format": "\"$\"#,##0",
                "verticalAlign": "center",
                "border": {
                  "left": {
                    "clr": "#000000",
                    "type": "thin"
                  },
                  "top": {
                    "clr": "#000000",
                    "type": "thin"
                  },
                  "bottom": {
                    "clr": "#000000",
                    "type": "thin"
                  },
                  "right": {
                    "clr": "#000000",
                    "type": "thin"
                  }
                }
              },
              "fontAttrs": {
                "def": {
                  "color": "#000000",
                  "family": "Calibri",
                  "size": 11
                }
              }
            },
            {
              "index": 3,
              "ref": "D8",
              "style": {
                "format": "\"$\"#,##0",
                "verticalAlign": "bottom",
                "border": {
                  "left": {
                    "clr": "#000000",
                    "type": "thin"
                  },
                  "top": {
                    "clr": "#000000",
                    "type": "thin"
                  },
                  "bottom": {
                    "clr": "#000000",
                    "type": "thin"
                  },
                  "right": {
                    "clr": "#000000",
                    "type": "thin"
                  }
                }
              },
              "fontAttrs": {
                "def": {
                  "color": "#000000",
                  "size": 10
                }
              }
            }
          ]
        },
        {
          "visible": true,
          "index": 8,
          "height": 19.2,
          "#cells": [
            {
              "value": "Prepaid Insurance",
              "index": 0,
              "ref": "A9",
              "style": {
                "verticalAlign": "center",
                "border": {
                  "left": {
                    "clr": "#000000",
                    "type": "thin"
                  },
                  "top": {
                    "clr": "#000000",
                    "type": "thin"
                  },
                  "bottom": {
                    "clr": "#000000",
                    "type": "thin"
                  },
                  "right": {
                    "clr": "#000000",
                    "type": "thin"
                  }
                }
              },
              "fontAttrs": {
                "def": {
                  "color": "#000000",
                  "family": "Calibri",
                  "size": 11
                }
              }
            },
            {
              "value": 1960,
              "index": 1,
              "ref": "B9",
              "style": {
                "format": "\"$\"#,##0",
                "verticalAlign": "center",
                "border": {
                  "left": {
                    "clr": "#000000",
                    "type": "thin"
                  },
                  "top": {
                    "clr": "#000000",
                    "type": "thin"
                  },
                  "bottom": {
                    "clr": "#000000",
                    "type": "thin"
                  },
                  "right": {
                    "clr": "#000000",
                    "type": "thin"
                  }
                }
              },
              "fontAttrs": {
                "def": {
                  "color": "#000000",
                  "family": "Calibri",
                  "size": 11
                }
              }
            },
            {
              "index": 2,
              "ref": "C9",
              "style": {
                "format": "\"$\"#,##0",
                "verticalAlign": "center",
                "border": {
                  "left": {
                    "clr": "#000000",
                    "type": "thin"
                  },
                  "top": {
                    "clr": "#000000",
                    "type": "thin"
                  },
                  "bottom": {
                    "clr": "#000000",
                    "type": "thin"
                  },
                  "right": {
                    "clr": "#000000",
                    "type": "thin"
                  }
                }
              },
              "fontAttrs": {
                "def": {
                  "color": "#000000",
                  "family": "Calibri",
                  "size": 11
                }
              }
            },
            {
              "index": 3,
              "ref": "D9",
              "style": {
                "format": "\"$\"#,##0",
                "verticalAlign": "bottom",
                "border": {
                  "left": {
                    "clr": "#000000",
                    "type": "thin"
                  },
                  "top": {
                    "clr": "#000000",
                    "type": "thin"
                  },
                  "bottom": {
                    "clr": "#000000",
                    "type": "thin"
                  },
                  "right": {
                    "clr": "#000000",
                    "type": "thin"
                  }
                }
              },
              "fontAttrs": {
                "def": {
                  "color": "#000000",
                  "size": 10
                }
              }
            }
          ]
        },
        {
          "visible": true,
          "index": 9,
          "height": 19.2,
          "#cells": [
            {
              "value": "Equipment",
              "index": 0,
              "ref": "A10",
              "style": {
                "verticalAlign": "center",
                "border": {
                  "left": {
                    "clr": "#000000",
                    "type": "thin"
                  },
                  "top": {
                    "clr": "#000000",
                    "type": "thin"
                  },
                  "bottom": {
                    "clr": "#000000",
                    "type": "thin"
                  },
                  "right": {
                    "clr": "#000000",
                    "type": "thin"
                  }
                }
              },
              "fontAttrs": {
                "def": {
                  "color": "#000000",
                  "family": "Calibri",
                  "size": 11
                }
              }
            },
            {
              "value": 176650,
              "index": 1,
              "ref": "B10",
              "style": {
                "format": "\"$\"#,##0",
                "verticalAlign": "center",
                "border": {
                  "left": {
                    "clr": "#000000",
                    "type": "thin"
                  },
                  "top": {
                    "clr": "#000000",
                    "type": "thin"
                  },
                  "bottom": {
                    "clr": "#000000",
                    "type": "thin"
                  },
                  "right": {
                    "clr": "#000000",
                    "type": "thin"
                  }
                }
              },
              "fontAttrs": {
                "def": {
                  "color": "#000000",
                  "family": "Calibri",
                  "size": 11
                }
              }
            },
            {
              "index": 2,
              "ref": "C10",
              "style": {
                "format": "\"$\"#,##0",
                "verticalAlign": "center",
                "border": {
                  "left": {
                    "clr": "#000000",
                    "type": "thin"
                  },
                  "top": {
                    "clr": "#000000",
                    "type": "thin"
                  },
                  "bottom": {
                    "clr": "#000000",
                    "type": "thin"
                  },
                  "right": {
                    "clr": "#000000",
                    "type": "thin"
                  }
                }
              },
              "fontAttrs": {
                "def": {
                  "color": "#000000",
                  "family": "Calibri",
                  "size": 11
                }
              }
            },
            {
              "index": 3,
              "ref": "D10",
              "style": {
                "format": "\"$\"#,##0",
                "verticalAlign": "bottom",
                "border": {
                  "left": {
                    "clr": "#000000",
                    "type": "thin"
                  },
                  "top": {
                    "clr": "#000000",
                    "type": "thin"
                  },
                  "bottom": {
                    "clr": "#000000",
                    "type": "thin"
                  },
                  "right": {
                    "clr": "#000000",
                    "type": "thin"
                  }
                }
              },
              "fontAttrs": {
                "def": {
                  "color": "#000000",
                  "size": 10
                }
              }
            }
          ]
        },
        {
          "visible": true,
          "index": 10,
          "height": 19.2,
          "#cells": [
            {
              "value": "Accounts Payable",
              "index": 0,
              "ref": "A11",
              "style": {
                "verticalAlign": "center",
                "border": {
                  "left": {
                    "clr": "#000000",
                    "type": "thin"
                  },
                  "top": {
                    "clr": "#000000",
                    "type": "thin"
                  },
                  "bottom": {
                    "clr": "#000000",
                    "type": "thin"
                  },
                  "right": {
                    "clr": "#000000",
                    "type": "thin"
                  }
                }
              },
              "fontAttrs": {
                "def": {
                  "color": "#000000",
                  "family": "Calibri",
                  "size": 11
                }
              }
            },
            {
              "index": 1,
              "ref": "B11",
              "style": {
                "format": "\"$\"#,##0",
                "verticalAlign": "bottom",
                "border": {
                  "left": {
                    "clr": "#000000",
                    "type": "thin"
                  },
                  "top": {
                    "clr": "#000000",
                    "type": "thin"
                  },
                  "bottom": {
                    "clr": "#000000",
                    "type": "thin"
                  },
                  "right": {
                    "clr": "#000000",
                    "type": "thin"
                  }
                }
              },
              "fontAttrs": {
                "def": {
                  "color": "#000000",
                  "size": 10
                }
              }
            },
            {
              "index": 2,
              "ref": "C11",
              "style": {
                "format": "\"$\"#,##0",
                "verticalAlign": "bottom",
                "border": {
                  "left": {
                    "clr": "#000000",
                    "type": "thin"
                  },
                  "top": {
                    "clr": "#000000",
                    "type": "thin"
                  },
                  "bottom": {
                    "clr": "#000000",
                    "type": "thin"
                  },
                  "right": {
                    "clr": "#000000",
                    "type": "thin"
                  }
                }
              },
              "fontAttrs": {
                "def": {
                  "color": "#000000",
                  "size": 10
                }
              }
            },
            {
              "value": 26000,
              "index": 3,
              "ref": "D11",
              "style": {
                "format": "\"$\"#,##0",
                "verticalAlign": "center",
                "border": {
                  "left": {
                    "clr": "#000000",
                    "type": "thin"
                  },
                  "top": {
                    "clr": "#000000",
                    "type": "thin"
                  },
                  "bottom": {
                    "clr": "#000000",
                    "type": "thin"
                  },
                  "right": {
                    "clr": "#000000",
                    "type": "thin"
                  }
                }
              },
              "fontAttrs": {
                "def": {
                  "color": "#000000",
                  "family": "Calibri",
                  "size": 11
                }
              }
            }
          ]
        },
        {
          "visible": true,
          "index": 11,
          "height": 19.2,
          "#cells": [
            {
              "value": "Notes Payable",
              "index": 0,
              "ref": "A12",
              "style": {
                "verticalAlign": "center",
                "border": {
                  "left": {
                    "clr": "#000000",
                    "type": "thin"
                  },
                  "top": {
                    "clr": "#000000",
                    "type": "thin"
                  },
                  "bottom": {
                    "clr": "#000000",
                    "type": "thin"
                  },
                  "right": {
                    "clr": "#000000",
                    "type": "thin"
                  }
                }
              },
              "fontAttrs": {
                "def": {
                  "color": "#000000",
                  "family": "Calibri",
                  "size": 11
                }
              }
            },
            {
              "index": 1,
              "ref": "B12",
              "style": {
                "format": "\"$\"#,##0",
                "verticalAlign": "bottom",
                "border": {
                  "left": {
                    "clr": "#000000",
                    "type": "thin"
                  },
                  "top": {
                    "clr": "#000000",
                    "type": "thin"
                  },
                  "bottom": {
                    "clr": "#000000",
                    "type": "thin"
                  },
                  "right": {
                    "clr": "#000000",
                    "type": "thin"
                  }
                }
              },
              "fontAttrs": {
                "def": {
                  "color": "#000000",
                  "size": 10
                }
              }
            },
            {
              "index": 2,
              "ref": "C12",
              "style": {
                "format": "\"$\"#,##0",
                "verticalAlign": "bottom",
                "border": {
                  "left": {
                    "clr": "#000000",
                    "type": "thin"
                  },
                  "top": {
                    "clr": "#000000",
                    "type": "thin"
                  },
                  "bottom": {
                    "clr": "#000000",
                    "type": "thin"
                  },
                  "right": {
                    "clr": "#000000",
                    "type": "thin"
                  }
                }
              },
              "fontAttrs": {
                "def": {
                  "color": "#000000",
                  "size": 10
                }
              }
            },
            {
              "value": 88090,
              "index": 3,
              "ref": "D12",
              "style": {
                "format": "\"$\"#,##0",
                "verticalAlign": "center",
                "border": {
                  "left": {
                    "clr": "#000000",
                    "type": "thin"
                  },
                  "top": {
                    "clr": "#000000",
                    "type": "thin"
                  },
                  "bottom": {
                    "clr": "#000000",
                    "type": "thin"
                  },
                  "right": {
                    "clr": "#000000",
                    "type": "thin"
                  }
                }
              },
              "fontAttrs": {
                "def": {
                  "color": "#000000",
                  "family": "Calibri",
                  "size": 11
                }
              }
            }
          ]
        },
        {
          "visible": true,
          "index": 12,
          "height": 19.2,
          "#cells": [
            {
              "value": "Owner's, Capital",
              "index": 0,
              "ref": "A13",
              "style": {
                "verticalAlign": "center",
                "border": {
                  "left": {
                    "clr": "#000000",
                    "type": "thin"
                  },
                  "top": {
                    "clr": "#000000",
                    "type": "thin"
                  },
                  "bottom": {
                    "clr": "#000000",
                    "type": "thin"
                  },
                  "right": {
                    "clr": "#000000",
                    "type": "thin"
                  }
                }
              },
              "fontAttrs": {
                "def": {
                  "color": "#000000",
                  "family": "Calibri",
                  "size": 11
                }
              }
            },
            {
              "index": 1,
              "ref": "B13",
              "style": {
                "format": "\"$\"#,##0",
                "verticalAlign": "bottom",
                "border": {
                  "left": {
                    "clr": "#000000",
                    "type": "thin"
                  },
                  "top": {
                    "clr": "#000000",
                    "type": "thin"
                  },
                  "bottom": {
                    "clr": "#000000",
                    "type": "thin"
                  },
                  "right": {
                    "clr": "#000000",
                    "type": "thin"
                  }
                }
              },
              "fontAttrs": {
                "def": {
                  "color": "#000000",
                  "size": 10
                }
              }
            },
            {
              "index": 2,
              "ref": "C13",
              "style": {
                "format": "\"$\"#,##0",
                "verticalAlign": "bottom",
                "border": {
                  "left": {
                    "clr": "#000000",
                    "type": "thin"
                  },
                  "top": {
                    "clr": "#000000",
                    "type": "thin"
                  },
                  "bottom": {
                    "clr": "#000000",
                    "type": "thin"
                  },
                  "right": {
                    "clr": "#000000",
                    "type": "thin"
                  }
                }
              },
              "fontAttrs": {
                "def": {
                  "color": "#000000",
                  "size": 10
                }
              }
            },
            {
              "value": 145835,
              "index": 3,
              "ref": "D13",
              "style": {
                "format": "\"$\"#,##0",
                "verticalAlign": "center",
                "border": {
                  "left": {
                    "clr": "#000000",
                    "type": "thin"
                  },
                  "top": {
                    "clr": "#000000",
                    "type": "thin"
                  },
                  "bottom": {
                    "clr": "#000000",
                    "type": "thin"
                  },
                  "right": {
                    "clr": "#000000",
                    "type": "thin"
                  }
                }
              },
              "fontAttrs": {
                "def": {
                  "color": "#000000",
                  "family": "Calibri",
                  "size": 11
                }
              }
            }
          ]
        },
        {
          "visible": true,
          "index": 13,
          "height": 19.2,
          "#cells": [
            {
              "value": "Owner's, Drawing",
              "index": 0,
              "ref": "A14",
              "style": {
                "verticalAlign": "center",
                "border": {
                  "left": {
                    "clr": "#000000",
                    "type": "thin"
                  },
                  "top": {
                    "clr": "#000000",
                    "type": "thin"
                  },
                  "bottom": {
                    "clr": "#000000",
                    "type": "thin"
                  },
                  "right": {
                    "clr": "#000000",
                    "type": "thin"
                  }
                }
              },
              "fontAttrs": {
                "def": {
                  "color": "#000000",
                  "family": "Calibri",
                  "size": 11
                }
              }
            },
            {
              "value": 114920,
              "index": 1,
              "ref": "B14",
              "style": {
                "format": "\"$\"#,##0",
                "verticalAlign": "center",
                "border": {
                  "left": {
                    "clr": "#000000",
                    "type": "thin"
                  },
                  "top": {
                    "clr": "#000000",
                    "type": "thin"
                  },
                  "bottom": {
                    "clr": "#000000",
                    "type": "thin"
                  },
                  "right": {
                    "clr": "#000000",
                    "type": "thin"
                  }
                }
              },
              "fontAttrs": {
                "def": {
                  "color": "#000000",
                  "family": "Calibri",
                  "size": 11
                }
              }
            },
            {
              "index": 2,
              "ref": "C14",
              "style": {
                "format": "\"$\"#,##0",
                "verticalAlign": "center",
                "border": {
                  "left": {
                    "clr": "#000000",
                    "type": "thin"
                  },
                  "top": {
                    "clr": "#000000",
                    "type": "thin"
                  },
                  "bottom": {
                    "clr": "#000000",
                    "type": "thin"
                  },
                  "right": {
                    "clr": "#000000",
                    "type": "thin"
                  }
                }
              },
              "fontAttrs": {
                "def": {
                  "color": "#000000",
                  "family": "Calibri",
                  "size": 11
                }
              }
            },
            {
              "index": 3,
              "ref": "D14",
              "style": {
                "format": "\"$\"#,##0",
                "verticalAlign": "bottom",
                "border": {
                  "left": {
                    "clr": "#000000",
                    "type": "thin"
                  },
                  "top": {
                    "clr": "#000000",
                    "type": "thin"
                  },
                  "bottom": {
                    "clr": "#000000",
                    "type": "thin"
                  },
                  "right": {
                    "clr": "#000000",
                    "type": "thin"
                  }
                }
              },
              "fontAttrs": {
                "def": {
                  "color": "#000000",
                  "size": 10
                }
              }
            }
          ]
        },
        {
          "visible": true,
          "index": 14,
          "height": 19.2,
          "#cells": [
            {
              "value": "Fees Earned",
              "index": 0,
              "ref": "A15",
              "style": {
                "verticalAlign": "center",
                "border": {
                  "left": {
                    "clr": "#000000",
                    "type": "thin"
                  },
                  "top": {
                    "clr": "#000000",
                    "type": "thin"
                  },
                  "bottom": {
                    "clr": "#000000",
                    "type": "thin"
                  },
                  "right": {
                    "clr": "#000000",
                    "type": "thin"
                  }
                }
              },
              "fontAttrs": {
                "def": {
                  "color": "#000000",
                  "family": "Calibri",
                  "size": 11
                }
              }
            },
            {
              "index": 1,
              "ref": "B15",
              "style": {
                "format": "\"$\"#,##0",
                "verticalAlign": "bottom",
                "border": {
                  "left": {
                    "clr": "#000000",
                    "type": "thin"
                  },
                  "top": {
                    "clr": "#000000",
                    "type": "thin"
                  },
                  "bottom": {
                    "clr": "#000000",
                    "type": "thin"
                  },
                  "right": {
                    "clr": "#000000",
                    "type": "thin"
                  }
                }
              },
              "fontAttrs": {
                "def": {
                  "color": "#000000",
                  "size": 10
                }
              }
            },
            {
              "index": 2,
              "ref": "C15",
              "style": {
                "format": "\"$\"#,##0",
                "verticalAlign": "bottom",
                "border": {
                  "left": {
                    "clr": "#000000",
                    "type": "thin"
                  },
                  "top": {
                    "clr": "#000000",
                    "type": "thin"
                  },
                  "bottom": {
                    "clr": "#000000",
                    "type": "thin"
                  },
                  "right": {
                    "clr": "#000000",
                    "type": "thin"
                  }
                }
              },
              "fontAttrs": {
                "def": {
                  "color": "#000000",
                  "size": 10
                }
              }
            },
            {
              "value": 409255,
              "index": 3,
              "ref": "D15",
              "style": {
                "format": "\"$\"#,##0",
                "verticalAlign": "center",
                "border": {
                  "left": {
                    "clr": "#000000",
                    "type": "thin"
                  },
                  "top": {
                    "clr": "#000000",
                    "type": "thin"
                  },
                  "bottom": {
                    "clr": "#000000",
                    "type": "thin"
                  },
                  "right": {
                    "clr": "#000000",
                    "type": "thin"
                  }
                }
              },
              "fontAttrs": {
                "def": {
                  "color": "#000000",
                  "family": "Calibri",
                  "size": 11
                }
              }
            }
          ]
        },
        {
          "visible": true,
          "index": 15,
          "height": 19.2,
          "#cells": [
            {
              "value": "Wages Expense",
              "index": 0,
              "ref": "A16",
              "style": {
                "verticalAlign": "center",
                "border": {
                  "left": {
                    "clr": "#000000",
                    "type": "thin"
                  },
                  "top": {
                    "clr": "#000000",
                    "type": "thin"
                  },
                  "bottom": {
                    "clr": "#000000",
                    "type": "thin"
                  },
                  "right": {
                    "clr": "#000000",
                    "type": "thin"
                  }
                }
              },
              "fontAttrs": {
                "def": {
                  "color": "#000000",
                  "family": "Calibri",
                  "size": 11
                }
              }
            },
            {
              "value": 243250,
              "index": 1,
              "ref": "B16",
              "style": {
                "format": "\"$\"#,##0",
                "verticalAlign": "center",
                "border": {
                  "left": {
                    "clr": "#000000",
                    "type": "thin"
                  },
                  "top": {
                    "clr": "#000000",
                    "type": "thin"
                  },
                  "bottom": {
                    "clr": "#000000",
                    "type": "thin"
                  },
                  "right": {
                    "clr": "#000000",
                    "type": "thin"
                  }
                }
              },
              "fontAttrs": {
                "def": {
                  "color": "#000000",
                  "family": "Calibri",
                  "size": 11
                }
              }
            },
            {
              "index": 2,
              "ref": "C16",
              "style": {
                "format": "\"$\"#,##0",
                "verticalAlign": "center",
                "border": {
                  "left": {
                    "clr": "#000000",
                    "type": "thin"
                  },
                  "top": {
                    "clr": "#000000",
                    "type": "thin"
                  },
                  "bottom": {
                    "clr": "#000000",
                    "type": "thin"
                  },
                  "right": {
                    "clr": "#000000",
                    "type": "thin"
                  }
                }
              },
              "fontAttrs": {
                "def": {
                  "color": "#000000",
                  "family": "Calibri",
                  "size": 11
                }
              }
            },
            {
              "index": 3,
              "ref": "D16",
              "style": {
                "format": "\"$\"#,##0",
                "verticalAlign": "bottom",
                "border": {
                  "left": {
                    "clr": "#000000",
                    "type": "thin"
                  },
                  "top": {
                    "clr": "#000000",
                    "type": "thin"
                  },
                  "bottom": {
                    "clr": "#000000",
                    "type": "thin"
                  },
                  "right": {
                    "clr": "#000000",
                    "type": "thin"
                  }
                }
              },
              "fontAttrs": {
                "def": {
                  "color": "#000000",
                  "size": 10
                }
              }
            }
          ]
        },
        {
          "visible": true,
          "index": 16,
          "height": 19.2,
          "#cells": [
            {
              "value": "Rent Expense",
              "index": 0,
              "ref": "A17",
              "style": {
                "verticalAlign": "center",
                "border": {
                  "left": {
                    "clr": "#000000",
                    "type": "thin"
                  },
                  "top": {
                    "clr": "#000000",
                    "type": "thin"
                  },
                  "bottom": {
                    "clr": "#000000",
                    "type": "thin"
                  },
                  "right": {
                    "clr": "#000000",
                    "type": "thin"
                  }
                }
              },
              "fontAttrs": {
                "def": {
                  "color": "#000000",
                  "family": "Calibri",
                  "size": 11
                }
              }
            },
            {
              "value": 46870,
              "index": 1,
              "ref": "B17",
              "style": {
                "format": "\"$\"#,##0",
                "verticalAlign": "center",
                "border": {
                  "left": {
                    "clr": "#000000",
                    "type": "thin"
                  },
                  "top": {
                    "clr": "#000000",
                    "type": "thin"
                  },
                  "bottom": {
                    "clr": "#000000",
                    "type": "thin"
                  },
                  "right": {
                    "clr": "#000000",
                    "type": "thin"
                  }
                }
              },
              "fontAttrs": {
                "def": {
                  "color": "#000000",
                  "family": "Calibri",
                  "size": 11
                }
              }
            },
            {
              "index": 2,
              "ref": "C17",
              "style": {
                "format": "\"$\"#,##0",
                "verticalAlign": "center",
                "border": {
                  "left": {
                    "clr": "#000000",
                    "type": "thin"
                  },
                  "top": {
                    "clr": "#000000",
                    "type": "thin"
                  },
                  "bottom": {
                    "clr": "#000000",
                    "type": "thin"
                  },
                  "right": {
                    "clr": "#000000",
                    "type": "thin"
                  }
                }
              },
              "fontAttrs": {
                "def": {
                  "color": "#000000",
                  "family": "Calibri",
                  "size": 11
                }
              }
            },
            {
              "index": 3,
              "ref": "D17",
              "style": {
                "format": "\"$\"#,##0",
                "verticalAlign": "bottom",
                "border": {
                  "left": {
                    "clr": "#000000",
                    "type": "thin"
                  },
                  "top": {
                    "clr": "#000000",
                    "type": "thin"
                  },
                  "bottom": {
                    "clr": "#000000",
                    "type": "thin"
                  },
                  "right": {
                    "clr": "#000000",
                    "type": "thin"
                  }
                }
              },
              "fontAttrs": {
                "def": {
                  "color": "#000000",
                  "size": 10
                }
              }
            }
          ]
        },
        {
          "visible": true,
          "index": 17,
          "height": 19.2,
          "#cells": [
            {
              "value": "Advertising Expense",
              "index": 0,
              "ref": "A18",
              "style": {
                "verticalAlign": "center",
                "border": {
                  "left": {
                    "clr": "#000000",
                    "type": "thin"
                  },
                  "top": {
                    "clr": "#000000",
                    "type": "thin"
                  },
                  "bottom": {
                    "clr": "#000000",
                    "type": "thin"
                  },
                  "right": {
                    "clr": "#000000",
                    "type": "thin"
                  }
                }
              },
              "fontAttrs": {
                "def": {
                  "color": "#000000",
                  "family": "Calibri",
                  "size": 11
                }
              }
            },
            {
              "value": 22930,
              "index": 1,
              "ref": "B18",
              "style": {
                "format": "\"$\"#,##0",
                "verticalAlign": "center",
                "border": {
                  "left": {
                    "clr": "#000000",
                    "type": "thin"
                  },
                  "top": {
                    "clr": "#000000",
                    "type": "thin"
                  },
                  "bottom": {
                    "clr": "#000000",
                    "type": "thin"
                  },
                  "right": {
                    "clr": "#000000",
                    "type": "thin"
                  }
                }
              },
              "fontAttrs": {
                "def": {
                  "color": "#000000",
                  "family": "Calibri",
                  "size": 11
                }
              }
            },
            {
              "index": 2,
              "ref": "C18",
              "style": {
                "format": "\"$\"#,##0",
                "verticalAlign": "center",
                "border": {
                  "left": {
                    "clr": "#000000",
                    "type": "thin"
                  },
                  "top": {
                    "clr": "#000000",
                    "type": "thin"
                  },
                  "bottom": {
                    "clr": "#000000",
                    "type": "thin"
                  },
                  "right": {
                    "clr": "#000000",
                    "type": "thin"
                  }
                }
              },
              "fontAttrs": {
                "def": {
                  "color": "#000000",
                  "family": "Calibri",
                  "size": 11
                }
              }
            },
            {
              "index": 3,
              "ref": "D18",
              "style": {
                "format": "\"$\"#,##0",
                "verticalAlign": "bottom",
                "border": {
                  "left": {
                    "clr": "#000000",
                    "type": "thin"
                  },
                  "top": {
                    "clr": "#000000",
                    "type": "thin"
                  },
                  "bottom": {
                    "clr": "#000000",
                    "type": "thin"
                  },
                  "right": {
                    "clr": "#000000",
                    "type": "thin"
                  }
                }
              },
              "fontAttrs": {
                "def": {
                  "color": "#000000",
                  "size": 10
                }
              }
            }
          ]
        },
        {
          "visible": true,
          "index": 18,
          "height": 19.2,
          "#cells": [
            {
              "value": "Misc. Expense",
              "index": 0,
              "ref": "A19",
              "style": {
                "verticalAlign": "center",
                "border": {
                  "left": {
                    "clr": "#000000",
                    "type": "thin"
                  },
                  "top": {
                    "clr": "#000000",
                    "type": "thin"
                  },
                  "bottom": {
                    "clr": "#000000",
                    "type": "thin"
                  },
                  "right": {
                    "clr": "#000000",
                    "type": "thin"
                  }
                }
              },
              "fontAttrs": {
                "def": {
                  "color": "#000000",
                  "family": "Calibri",
                  "size": 11
                }
              }
            },
            {
              "value": 4840,
              "index": 1,
              "ref": "B19",
              "style": {
                "format": "\"$\"#,##0",
                "verticalAlign": "center",
                "border": {
                  "left": {
                    "clr": "#000000",
                    "type": "thin"
                  },
                  "top": {
                    "clr": "#000000",
                    "type": "thin"
                  },
                  "bottom": {
                    "clr": "#000000",
                    "type": "thin"
                  },
                  "right": {
                    "clr": "#000000",
                    "type": "thin"
                  }
                }
              },
              "fontAttrs": {
                "def": {
                  "color": "#000000",
                  "family": "Calibri",
                  "size": 11
                }
              }
            },
            {
              "index": 2,
              "ref": "C19",
              "style": {
                "format": "\"$\"#,##0",
                "verticalAlign": "center",
                "border": {
                  "left": {
                    "clr": "#000000",
                    "type": "thin"
                  },
                  "top": {
                    "clr": "#000000",
                    "type": "thin"
                  },
                  "bottom": {
                    "clr": "#000000",
                    "type": "thin"
                  },
                  "right": {
                    "clr": "#000000",
                    "type": "thin"
                  }
                }
              },
              "fontAttrs": {
                "def": {
                  "color": "#000000",
                  "family": "Calibri",
                  "size": 11
                }
              }
            },
            {
              "index": 3,
              "ref": "D19",
              "style": {
                "format": "\"$\"#,##0",
                "verticalAlign": "bottom",
                "border": {
                  "left": {
                    "clr": "#000000",
                    "type": "thin"
                  },
                  "top": {
                    "clr": "#000000",
                    "type": "thin"
                  },
                  "bottom": {
                    "clr": "#000000",
                    "type": "thin"
                  },
                  "right": {
                    "clr": "#000000",
                    "type": "thin"
                  }
                }
              },
              "fontAttrs": {
                "def": {
                  "color": "#000000",
                  "size": 10
                }
              }
            }
          ]
        },
        {
          "visible": true,
          "index": 19,
          "height": 19.2,
          "#cells": [
            {
              "value": "Totals",
              "index": 0,
              "ref": "A20",
              "style": {
                "verticalAlign": "bottom",
                "border": {
                  "left": {
                    "clr": "#000000",
                    "type": "thin"
                  },
                  "top": {
                    "clr": "#000000",
                    "type": "thin"
                  },
                  "bottom": {
                    "clr": "#000000",
                    "type": "thin"
                  },
                  "right": {
                    "clr": "#000000",
                    "type": "thin"
                  }
                }
              },
              "fontAttrs": {
                "def": {
                  "color": "#000000",
                  "family": "Calibri",
                  "size": 11
                }
              }
            },
            {
              "value": 669180,
              "index": 1,
              "ref": "B20",
              "style": {
                "textAlign": "right",
                "format": "\"$\"#,##0.00",
                "verticalAlign": "bottom",
                "border": {
                  "left": {
                    "clr": "#000000",
                    "type": "thin"
                  },
                  "top": {
                    "clr": "#000000",
                    "type": "thin"
                  },
                  "bottom": {
                    "clr": "#000000",
                    "type": "thin"
                  },
                  "right": {
                    "clr": "#000000",
                    "type": "thin"
                  }
                }
              },
              "fontAttrs": {
                "def": {
                  "color": "#000000",
                  "family": "Calibri",
                  "size": 11
                }
              }
            },
            {
              "index": 2,
              "ref": "C20",
              "style": {
                "textAlign": "right",
                "format": "\"$\"#,##0.00",
                "verticalAlign": "bottom",
                "border": {
                  "left": {
                    "clr": "#000000",
                    "type": "thin"
                  },
                  "top": {
                    "clr": "#000000",
                    "type": "thin"
                  },
                  "bottom": {
                    "clr": "#000000",
                    "type": "thin"
                  },
                  "right": {
                    "clr": "#000000",
                    "type": "thin"
                  }
                }
              },
              "fontAttrs": {
                "def": {
                  "color": "#000000",
                  "family": "Calibri",
                  "size": 11
                }
              }
            },
            {
              "value": 669180,
              "index": 3,
              "ref": "D20",
              "style": {
                "textAlign": "right",
                "format": "\"$\"#,##0.00",
                "verticalAlign": "bottom",
                "border": {
                  "left": {
                    "clr": "#000000",
                    "type": "thin"
                  },
                  "top": {
                    "clr": "#000000",
                    "type": "thin"
                  },
                  "bottom": {
                    "clr": "#000000",
                    "type": "thin"
                  },
                  "right": {
                    "clr": "#000000",
                    "type": "thin"
                  }
                }
              },
              "fontAttrs": {
                "def": {
                  "color": "#000000",
                  "family": "Calibri",
                  "size": 11
                }
              }
            }
          ]
        }
      ],
      "#columns": [
        {
          "visible": true,
          "index": 0,
          "width": 179
        },
        {
          "visible": true,
          "index": 1,
          "width": 139
        },
        {
          "visible": true,
          "index": 2,
          "width": 139
        },
        {
          "visible": true,
          "index": 3,
          "width": 132
        }
      ],
      "#mergedCells": [
        "A1:D1",
        "A2:D2",
        "A3:D3",
        "B4:D4"
      ]
    }
  ]
}