{
  "matchedElementsJson": {
    "node": [
      {
        "subpath": "$['#sheets']",
        "solpath": "$['#sheets']",
        "matchstatus": "match",
        "node": [
          {
            "subpath": "$['#sheets']['0']",
            "solpath": "$['#sheets']['0']",
            "matchstatus": "match",
            "node": [
              {
                "subpath": "$['#sheets']['0']['#rows']",
                "solpath": "$['#sheets']['0']['#rows']",
                "matchstatus": "match",
                "node": [
                  {
                    "subpath": "$['#sheets']['0']['#rows']['0']",
                    "solpath": "$['#sheets']['0']['#rows']['0']",
                    "matchstatus": "match",
                    "node": [
                      {
                        "subpath": "$['#sheets']['0']['#rows']['0']['#cells']",
                        "solpath": "$['#sheets']['0']['#rows']['0']['#cells']",
                        "matchstatus": "match",
                        "node": [
                          {
                            "subpath": "$['#sheets']['0']['#rows']['0']['#cells']['0']",
                            "solpath": "$['#sheets']['0']['#rows']['0']['#cells']['0']",
                            "matchstatus": "match"
                          },
                          {
                            "subpath": "$['#sheets']['0']['#rows']['0']['#cells']['1']",
                            "solpath": "$['#sheets']['0']['#rows']['0']['#cells']['1']",
                            "matchstatus": "match"
                          },
                          {
                            "subpath": "$['#sheets']['0']['#rows']['0']['#cells']['2']",
                            "solpath": "$['#sheets']['0']['#rows']['0']['#cells']['2']",
                            "matchstatus": "match"
                          }
                        ]
                      }
                    ]
                  },
                  {
                    "subpath": "$['#sheets']['0']['#rows']['1']",
                    "solpath": "$['#sheets']['0']['#rows']['1']",
                    "matchstatus": "match",
                    "node": [
                      {
                        "subpath": "$['#sheets']['0']['#rows']['1']['#cells']",
                        "solpath": "$['#sheets']['0']['#rows']['1']['#cells']",
                        "matchstatus": "match",
                        "node": [
                          {
                            "subpath": "$['#sheets']['0']['#rows']['1']['#cells']['0']",
                            "solpath": "$['#sheets']['0']['#rows']['1']['#cells']['0']",
                            "matchstatus": "match"
                          },
                          {
                            "subpath": "$['#sheets']['0']['#rows']['1']['#cells']['1']",
                            "solpath": "$['#sheets']['0']['#rows']['1']['#cells']['1']",
                            "matchstatus": "match"
                          },
                          {
                            "subpath": "$['#sheets']['0']['#rows']['1']['#cells']['2']",
                            "solpath": "$['#sheets']['0']['#rows']['1']['#cells']['2']",
                            "matchstatus": "match"
                          },
                          {
                            "subpath": "$['#sheets']['0']['#rows']['1']['#cells']['3']",
                            "solpath": "$['#sheets']['0']['#rows']['1']['#cells']['3']",
                            "matchstatus": "match"
                          }
                        ]
                      }
                    ]
                  },
                  {
                    "subpath": "$['#sheets']['0']['#rows']['2']",
                    "solpath": "$['#sheets']['0']['#rows']['2']",
                    "matchstatus": "match",
                    "node": [
                      {
                        "subpath": "$['#sheets']['0']['#rows']['2']['#cells']",
                        "solpath": "$['#sheets']['0']['#rows']['2']['#cells']",
                        "matchstatus": "match",
                        "node": [
                          {
                            "subpath": "$['#sheets']['0']['#rows']['2']['#cells']['0']",
                            "solpath": "$['#sheets']['0']['#rows']['2']['#cells']['0']",
                            "matchstatus": "match"
                          },
                          {
                            "subpath": "$['#sheets']['0']['#rows']['2']['#cells']['1']",
                            "solpath": "$['#sheets']['0']['#rows']['2']['#cells']['1']",
                            "matchstatus": "match"
                          },
                          {
                            "subpath": "$['#sheets']['0']['#rows']['2']['#cells']['2']",
                            "solpath": "$['#sheets']['0']['#rows']['2']['#cells']['2']",
                            "matchstatus": "match"
                          },
                          {
                            "subpath": "$['#sheets']['0']['#rows']['2']['#cells']['3']",
                            "solpath": "$['#sheets']['0']['#rows']['2']['#cells']['3']",
                            "matchstatus": "match"
                          }
                        ]
                      }
                    ]
                  },
                  {
                    "subpath": "$['#sheets']['0']['#rows']['3']",
                    "solpath": "$['#sheets']['0']['#rows']['3']",
                    "matchstatus": "match",
                    "node": [
                      {
                        "subpath": "$['#sheets']['0']['#rows']['3']['#cells']",
                        "solpath": "$['#sheets']['0']['#rows']['3']['#cells']",
                        "matchstatus": "match",
                        "node": [
                          {
                            "subpath": "$['#sheets']['0']['#rows']['3']['#cells']['0']",
                            "solpath": "$['#sheets']['0']['#rows']['3']['#cells']['0']",
                            "matchstatus": "match"
                          },
                          {
                            "subpath": "$['#sheets']['0']['#rows']['3']['#cells']['1']",
                            "solpath": "$['#sheets']['0']['#rows']['3']['#cells']['1']",
                            "matchstatus": "match"
                          },
                          {
                            "subpath": "$['#sheets']['0']['#rows']['3']['#cells']['2']",
                            "solpath": "$['#sheets']['0']['#rows']['3']['#cells']['2']",
                            "matchstatus": "match"
                          },
                          {
                            "subpath": "$['#sheets']['0']['#rows']['3']['#cells']['3']",
                            "solpath": "$['#sheets']['0']['#rows']['3']['#cells']['3']",
                            "matchstatus": "match"
                          }
                        ]
                      }
                    ]
                  },
                  {
                    "subpath": "$['#sheets']['0']['#rows']['4']",
                    "solpath": "$['#sheets']['0']['#rows']['4']",
                    "matchstatus": "match",
                    "node": [
                      {
                        "subpath": "$['#sheets']['0']['#rows']['4']['#cells']",
                        "solpath": "$['#sheets']['0']['#rows']['4']['#cells']",
                        "matchstatus": "match",
                        "node": [
                          {
                            "subpath": "$['#sheets']['0']['#rows']['4']['#cells']['0']",
                            "solpath": "$['#sheets']['0']['#rows']['4']['#cells']['0']",
                            "matchstatus": "match"
                          },
                          {
                            "subpath": "$['#sheets']['0']['#rows']['4']['#cells']['1']",
                            "solpath": "$['#sheets']['0']['#rows']['4']['#cells']['1']",
                            "matchstatus": "match"
                          },
                          {
                            "subpath": "$['#sheets']['0']['#rows']['4']['#cells']['2']",
                            "solpath": "$['#sheets']['0']['#rows']['4']['#cells']['2']",
                            "matchstatus": "match"
                          },
                          {
                            "subpath": "$['#sheets']['0']['#rows']['4']['#cells']['3']",
                            "solpath": "$['#sheets']['0']['#rows']['4']['#cells']['3']",
                            "matchstatus": "match"
                          }
                        ]
                      }
                    ]
                  },
                  {
                    "subpath": "$['#sheets']['0']['#rows']['5']",
                    "solpath": "$['#sheets']['0']['#rows']['5']",
                    "matchstatus": "match",
                    "node": [
                      {
                        "subpath": "$['#sheets']['0']['#rows']['5']['#cells']",
                        "solpath": "$['#sheets']['0']['#rows']['5']['#cells']",
                        "matchstatus": "match",
                        "node": [
                          {
                            "subpath": "$['#sheets']['0']['#rows']['5']['#cells']['0']",
                            "solpath": "$['#sheets']['0']['#rows']['5']['#cells']['0']",
                            "matchstatus": "match"
                          },
                          {
                            "subpath": "$['#sheets']['0']['#rows']['5']['#cells']['1']",
                            "solpath": "$['#sheets']['0']['#rows']['5']['#cells']['1']",
                            "matchstatus": "match"
                          },
                          {
                            "subpath": "$['#sheets']['0']['#rows']['5']['#cells']['2']",
                            "solpath": "$['#sheets']['0']['#rows']['5']['#cells']['2']",
                            "matchstatus": "match"
                          },
                          {
                            "subpath": "$['#sheets']['0']['#rows']['5']['#cells']['3']",
                            "solpath": "$['#sheets']['0']['#rows']['5']['#cells']['3']",
                            "matchstatus": "match"
                          }
                        ]
                      }
                    ]
                  },
                  {
                    "subpath": "$['#sheets']['0']['#rows']['6']",
                    "solpath": "$['#sheets']['0']['#rows']['6']",
                    "matchstatus": "match",
                    "node": [
                      {
                        "subpath": "$['#sheets']['0']['#rows']['6']['#cells']",
                        "solpath": "$['#sheets']['0']['#rows']['6']['#cells']",
                        "matchstatus": "match",
                        "node": [
                          {
                            "subpath": "$['#sheets']['0']['#rows']['6']['#cells']['0']",
                            "solpath": "$['#sheets']['0']['#rows']['6']['#cells']['0']",
                            "matchstatus": "match"
                          },
                          {
                            "subpath": "$['#sheets']['0']['#rows']['6']['#cells']['1']",
                            "solpath": "$['#sheets']['0']['#rows']['6']['#cells']['1']",
                            "matchstatus": "match"
                          },
                          {
                            "subpath": "$['#sheets']['0']['#rows']['6']['#cells']['2']",
                            "solpath": "$['#sheets']['0']['#rows']['6']['#cells']['2']",
                            "matchstatus": "match"
                          },
                          {
                            "subpath": "$['#sheets']['0']['#rows']['6']['#cells']['3']",
                            "solpath": "$['#sheets']['0']['#rows']['6']['#cells']['3']",
                            "matchstatus": "match"
                          }
                        ]
                      }
                    ]
                  },
                  {
                    "subpath": "$['#sheets']['0']['#rows']['7']",
                    "solpath": "$['#sheets']['0']['#rows']['7']",
                    "matchstatus": "match",
                    "node": [
                      {
                        "subpath": "$['#sheets']['0']['#rows']['7']['#cells']",
                        "solpath": "$['#sheets']['0']['#rows']['7']['#cells']",
                        "matchstatus": "match",
                        "node": [
                          {
                            "subpath": "$['#sheets']['0']['#rows']['7']['#cells']['0']",
                            "solpath": "$['#sheets']['0']['#rows']['7']['#cells']['0']",
                            "matchstatus": "match"
                          },
                          {
                            "subpath": "$['#sheets']['0']['#rows']['7']['#cells']['1']",
                            "solpath": "$['#sheets']['0']['#rows']['7']['#cells']['1']",
                            "matchstatus": "match"
                          },
                          {
                            "subpath": "$['#sheets']['0']['#rows']['7']['#cells']['2']",
                            "solpath": "$['#sheets']['0']['#rows']['7']['#cells']['2']",
                            "matchstatus": "match"
                          },
                          {
                            "subpath": "$['#sheets']['0']['#rows']['7']['#cells']['3']",
                            "solpath": "$['#sheets']['0']['#rows']['7']['#cells']['3']",
                            "matchstatus": "match"
                          }
                        ]
                      }
                    ]
                  },
                  {
                    "subpath": "$['#sheets']['0']['#rows']['8']",
                    "solpath": "$['#sheets']['0']['#rows']['8']",
                    "matchstatus": "match",
                    "node": [
                      {
                        "subpath": "$['#sheets']['0']['#rows']['8']['#cells']",
                        "solpath": "$['#sheets']['0']['#rows']['8']['#cells']",
                        "matchstatus": "match",
                        "node": [
                          {
                            "subpath": "$['#sheets']['0']['#rows']['8']['#cells']['0']",
                            "solpath": "$['#sheets']['0']['#rows']['8']['#cells']['0']",
                            "matchstatus": "match"
                          },
                          {
                            "subpath": "$['#sheets']['0']['#rows']['8']['#cells']['1']",
                            "solpath": "$['#sheets']['0']['#rows']['8']['#cells']['1']",
                            "matchstatus": "match"
                          },
                          {
                            "subpath": "$['#sheets']['0']['#rows']['8']['#cells']['2']",
                            "solpath": "$['#sheets']['0']['#rows']['8']['#cells']['2']",
                            "matchstatus": "match"
                          },
                          {
                            "subpath": "$['#sheets']['0']['#rows']['8']['#cells']['3']",
                            "solpath": "$['#sheets']['0']['#rows']['8']['#cells']['3']",
                            "matchstatus": "match"
                          }
                        ]
                      }
                    ]
                  },
                  {
                    "subpath": "$['#sheets']['0']['#rows']['9']",
                    "solpath": "$['#sheets']['0']['#rows']['9']",
                    "matchstatus": "match",
                    "node": [
                      {
                        "subpath": "$['#sheets']['0']['#rows']['9']['#cells']",
                        "solpath": "$['#sheets']['0']['#rows']['9']['#cells']",
                        "matchstatus": "match",
                        "node": [
                          {
                            "subpath": "$['#sheets']['0']['#rows']['9']['#cells']['0']",
                            "solpath": "$['#sheets']['0']['#rows']['9']['#cells']['0']",
                            "matchstatus": "match"
                          },
                          {
                            "subpath": "$['#sheets']['0']['#rows']['9']['#cells']['1']",
                            "solpath": "$['#sheets']['0']['#rows']['9']['#cells']['1']",
                            "matchstatus": "match"
                          },
                          {
                            "subpath": "$['#sheets']['0']['#rows']['9']['#cells']['2']",
                            "solpath": "$['#sheets']['0']['#rows']['9']['#cells']['2']",
                            "matchstatus": "match"
                          },
                          {
                            "subpath": "$['#sheets']['0']['#rows']['9']['#cells']['3']",
                            "solpath": "$['#sheets']['0']['#rows']['9']['#cells']['3']",
                            "matchstatus": "match"
                          }
                        ]
                      }
                    ]
                  },
                  {
                    "subpath": "$['#sheets']['0']['#rows']['10']",
                    "solpath": "$['#sheets']['0']['#rows']['10']",
                    "matchstatus": "match",
                    "node": [
                      {
                        "subpath": "$['#sheets']['0']['#rows']['10']['#cells']",
                        "solpath": "$['#sheets']['0']['#rows']['10']['#cells']",
                        "matchstatus": "match",
                        "node": [
                          {
                            "subpath": "$['#sheets']['0']['#rows']['10']['#cells']['0']",
                            "solpath": "$['#sheets']['0']['#rows']['10']['#cells']['0']",
                            "matchstatus": "match"
                          },
                          {
                            "subpath": "$['#sheets']['0']['#rows']['10']['#cells']['1']",
                            "solpath": "$['#sheets']['0']['#rows']['10']['#cells']['1']",
                            "matchstatus": "match"
                          },
                          {
                            "subpath": "$['#sheets']['0']['#rows']['10']['#cells']['2']",
                            "solpath": "$['#sheets']['0']['#rows']['10']['#cells']['2']",
                            "matchstatus": "match"
                          },
                          {
                            "subpath": "$['#sheets']['0']['#rows']['10']['#cells']['3']",
                            "solpath": "$['#sheets']['0']['#rows']['10']['#cells']['3']",
                            "matchstatus": "match"
                          }
                        ]
                      }
                    ]
                  },
                  {
                    "subpath": "$['#sheets']['0']['#rows']['11']",
                    "solpath": "$['#sheets']['0']['#rows']['11']",
                    "matchstatus": "match",
                    "node": [
                      {
                        "subpath": "$['#sheets']['0']['#rows']['11']['#cells']",
                        "solpath": "$['#sheets']['0']['#rows']['11']['#cells']",
                        "matchstatus": "match",
                        "node": [
                          {
                            "subpath": "$['#sheets']['0']['#rows']['11']['#cells']['0']",
                            "solpath": "$['#sheets']['0']['#rows']['11']['#cells']['0']",
                            "matchstatus": "match"
                          },
                          {
                            "subpath": "$['#sheets']['0']['#rows']['11']['#cells']['1']",
                            "solpath": "$['#sheets']['0']['#rows']['11']['#cells']['1']",
                            "matchstatus": "match"
                          },
                          {
                            "subpath": "$['#sheets']['0']['#rows']['11']['#cells']['2']",
                            "solpath": "$['#sheets']['0']['#rows']['11']['#cells']['2']",
                            "matchstatus": "match"
                          },
                          {
                            "subpath": "$['#sheets']['0']['#rows']['11']['#cells']['3']",
                            "solpath": "$['#sheets']['0']['#rows']['11']['#cells']['3']",
                            "matchstatus": "match"
                          }
                        ]
                      }
                    ]
                  },
                  {
                    "subpath": "$['#sheets']['0']['#rows']['12']",
                    "solpath": "$['#sheets']['0']['#rows']['12']",
                    "matchstatus": "match",
                    "node": [
                      {
                        "subpath": "$['#sheets']['0']['#rows']['12']['#cells']",
                        "solpath": "$['#sheets']['0']['#rows']['12']['#cells']",
                        "matchstatus": "match",
                        "node": [
                          {
                            "subpath": "$['#sheets']['0']['#rows']['12']['#cells']['0']",
                            "solpath": "$['#sheets']['0']['#rows']['12']['#cells']['0']",
                            "matchstatus": "match"
                          },
                          {
                            "subpath": "$['#sheets']['0']['#rows']['12']['#cells']['1']",
                            "solpath": "$['#sheets']['0']['#rows']['12']['#cells']['1']",
                            "matchstatus": "match"
                          },
                          {
                            "subpath": "$['#sheets']['0']['#rows']['12']['#cells']['2']",
                            "solpath": "$['#sheets']['0']['#rows']['12']['#cells']['2']",
                            "matchstatus": "match"
                          }
                        ]
                      }
                    ]
                  },
                  {
                    "subpath": "$['#sheets']['0']['#rows']['13']",
                    "solpath": "$['#sheets']['0']['#rows']['13']",
                    "matchstatus": "match",
                    "node": [
                      {
                        "subpath": "$['#sheets']['0']['#rows']['13']['#cells']",
                        "solpath": "$['#sheets']['0']['#rows']['13']['#cells']",
                        "matchstatus": "match",
                        "node": [
                          {
                            "subpath": "$['#sheets']['0']['#rows']['13']['#cells']['0']",
                            "solpath": "$['#sheets']['0']['#rows']['13']['#cells']['0']",
                            "matchstatus": "match"
                          }
                        ]
                      }
                    ]
                  }
                ]
              },
              {
                "subpath": "$['#sheets']['0']['#columns']",
                "solpath": "$['#sheets']['0']['#columns']",
                "matchstatus": "match"
              },
              {
                "subpath": "$['#sheets']['0']['#mergedCells']",
                "solpath": "$['#sheets']['0']['#mergedCells']",
                "matchstatus": "match"
              }
            ]
          }
        ]
      }
    ]
  },
  "solutionJson": {
    "activeSheet": "Solution",
    "displayMode": null,
    "colHeader": true,
    "rowHeader": true,
    "defaults": {
      "rowHeight": 20,
      "columnWidth": 64
    },
    "#sheets": [
      {
        "name": "Solution",
        "id": "sid1PpMYg",
        "selection": "D9:F16",
        "activeCell": "D9",
        "frozenRows": 0,
        "frozenColumns": 0,
        "showGridLines": true,
        "rowCount": 19,
        "columnCount": 6,
        "defaults": {
          "cellFontAttrs": {
            "family": "Arial",
            "size": "12"
          }
        },
        "#rows": [
          {
            "visible": true,
            "index": 4,
            "#cells": [
              {
                "index": 3,
                "ref": "D5",
                "style": {
                  "border": {
                    "bottom": {
                      "clr": "#000000",
                      "type": "thin"
                    }
                  }
                }
              },
              {
                "index": 4,
                "ref": "E5",
                "style": {
                  "border": {
                    "bottom": {
                      "clr": "#000000",
                      "type": "thin"
                    }
                  }
                }
              },
              {
                "index": 5,
                "ref": "F5",
                "style": {
                  "border": {
                    "bottom": {
                      "clr": "#000000",
                      "type": "thin"
                    }
                  }
                }
              }
            ]
          },
          {
            "visible": true,
            "index": 5,
            "#cells": [
              {
                "index": 2,
                "ref": "C6",
                "style": {
                  "border": {
                    "right": {
                      "clr": "#000000",
                      "type": "thin"
                    }
                  }
                }
              },
              {
                "index": 3,
                "ref": "D6",
                "style": {
                  "background": "#f2f2f2",
                  "verticalAlign": "bottom",
                  "border": {
                    "left": {
                      "clr": "#000000",
                      "type": "thin"
                    },
                    "top": {
                      "clr": "#000000",
                      "type": "thin"
                    },
                    "bottom": {
                      "clr": "#000000",
                      "type": "thin"
                    },
                    "right": {
                      "clr": "#000000",
                      "type": "thin"
                    }
                  },
                  "textAlign": "center"
                },
                "fontAttrs": {
                  "def": {
                    "color": "#000000",
                    "family": "Calibri",
                    "size": 11,
                    "bold": true
                  }
                },
                "value": "Blue Sea Company"
              },
              {
                "index": 4,
                "ref": "E6",
                "style": {
                  "background": "#f2f2f2",
                  "verticalAlign": "bottom",
                  "border": {
                    "left": {
                      "clr": "#000000",
                      "type": "thin"
                    },
                    "top": {
                      "clr": "#000000",
                      "type": "thin"
                    },
                    "bottom": {
                      "clr": "#000000",
                      "type": "thin"
                    },
                    "right": {
                      "clr": "#000000",
                      "type": "thin"
                    }
                  },
                  "textAlign": "center"
                },
                "fontAttrs": {
                  "def": {
                    "color": "#000000",
                    "family": "Calibri",
                    "size": 11,
                    "bold": true
                  }
                }
              },
              {
                "index": 5,
                "ref": "F6",
                "style": {
                  "background": "#f2f2f2",
                  "textAlign": "center",
                  "verticalAlign": "bottom",
                  "border": {
                    "left": {
                      "clr": "#000000",
                      "type": "thin"
                    },
                    "top": {
                      "clr": "#000000",
                      "type": "thin"
                    },
                    "bottom": {
                      "clr": "#000000",
                      "type": "thin"
                    },
                    "right": {
                      "clr": "#000000",
                      "type": "thin"
                    }
                  }
                },
                "fontAttrs": {
                  "def": {
                    "color": "#000000",
                    "family": "Calibri",
                    "size": 11,
                    "bold": true
                  }
                }
              }
            ]
          },
          {
            "visible": true,
            "index": 6,
            "#cells": [
              {
                "index": 2,
                "ref": "C7",
                "style": {
                  "border": {
                    "right": {
                      "clr": "#000000",
                      "type": "thin"
                    }
                  }
                }
              },
              {
                "index": 3,
                "ref": "D7",
                "style": {
                  "background": "#f2f2f2",
                  "verticalAlign": "bottom",
                  "border": {
                    "left": {
                      "clr": "#000000",
                      "type": "thin"
                    },
                    "top": {
                      "clr": "#000000",
                      "type": "thin"
                    },
                    "bottom": {
                      "clr": "#000000",
                      "type": "thin"
                    },
                    "right": {
                      "clr": "#000000",
                      "type": "thin"
                    }
                  },
                  "textAlign": "center"
                },
                "fontAttrs": {
                  "def": {
                    "color": "#000000",
                    "family": "Calibri",
                    "size": 11,
                    "bold": true
                  }
                },
                "value": "Income Statement"
              },
              {
                "index": 4,
                "ref": "E7",
                "style": {
                  "background": "#f2f2f2",
                  "verticalAlign": "bottom",
                  "border": {
                    "left": {
                      "clr": "#000000",
                      "type": "thin"
                    },
                    "top": {
                      "clr": "#000000",
                      "type": "thin"
                    },
                    "bottom": {
                      "clr": "#000000",
                      "type": "thin"
                    },
                    "right": {
                      "clr": "#000000",
                      "type": "thin"
                    }
                  },
                  "textAlign": "center"
                },
                "fontAttrs": {
                  "def": {
                    "color": "#000000",
                    "family": "Calibri",
                    "size": 11,
                    "bold": true
                  }
                }
              },
              {
                "index": 5,
                "ref": "F7",
                "style": {
                  "background": "#f2f2f2",
                  "textAlign": "center",
                  "verticalAlign": "bottom",
                  "border": {
                    "left": {
                      "clr": "#000000",
                      "type": "thin"
                    },
                    "top": {
                      "clr": "#000000",
                      "type": "thin"
                    },
                    "bottom": {
                      "clr": "#000000",
                      "type": "thin"
                    },
                    "right": {
                      "clr": "#000000",
                      "type": "thin"
                    }
                  }
                },
                "fontAttrs": {
                  "def": {
                    "color": "#000000",
                    "family": "Calibri",
                    "size": 11,
                    "bold": true
                  }
                }
              }
            ]
          },
          {
            "visible": true,
            "index": 7,
            "#cells": [
              {
                "index": 2,
                "ref": "C8",
                "style": {
                  "border": {
                    "right": {
                      "clr": "#000000",
                      "type": "thin"
                    }
                  }
                }
              },
              {
                "value": "For the Most Recent Year",
                "index": 3,
                "ref": "D8",
                "style": {
                  "background": "#f2f2f2",
                  "textAlign": "center",
                  "verticalAlign": "bottom",
                  "border": {
                    "left": {
                      "clr": "#000000",
                      "type": "thin"
                    },
                    "top": {
                      "clr": "#000000",
                      "type": "thin"
                    },
                    "bottom": {
                      "clr": "#000000",
                      "type": "thin"
                    },
                    "right": {
                      "clr": "#000000",
                      "type": "thin"
                    }
                  }
                },
                "fontAttrs": {
                  "def": {
                    "color": "#000000",
                    "family": "Calibri",
                    "size": 11,
                    "bold": true
                  }
                }
              },
              {
                "index": 4,
                "ref": "E8",
                "style": {
                  "background": "#f2f2f2",
                  "verticalAlign": "bottom",
                  "border": {
                    "left": {
                      "clr": "#000000",
                      "type": "thin"
                    },
                    "top": {
                      "clr": "#000000",
                      "type": "thin"
                    },
                    "bottom": {
                      "clr": "#000000",
                      "type": "thin"
                    },
                    "right": {
                      "clr": "#000000",
                      "type": "thin"
                    }
                  },
                  "textAlign": "center"
                },
                "fontAttrs": {
                  "def": {
                    "color": "#000000",
                    "family": "Calibri",
                    "size": 11,
                    "bold": true
                  }
                }
              },
              {
                "index": 5,
                "ref": "F8",
                "style": {
                  "background": "#f2f2f2",
                  "textAlign": "center",
                  "verticalAlign": "bottom",
                  "border": {
                    "left": {
                      "clr": "#000000",
                      "type": "thin"
                    },
                    "top": {
                      "clr": "#000000",
                      "type": "thin"
                    },
                    "bottom": {
                      "clr": "#000000",
                      "type": "thin"
                    },
                    "right": {
                      "clr": "#000000",
                      "type": "thin"
                    }
                  }
                },
                "fontAttrs": {
                  "def": {
                    "color": "#000000",
                    "family": "Calibri",
                    "size": 11,
                    "bold": true
                  }
                }
              }
            ]
          },
          {
            "visible": true,
            "index": 8,
            "#cells": [
              {
                "index": 2,
                "ref": "C9",
                "style": {
                  "border": {
                    "right": {
                      "clr": "#000000",
                      "type": "thin"
                    }
                  }
                }
              },
              {
                "value": "Sales revenue",
                "index": 3,
                "ref": "D9",
                "style": {
                  "verticalAlign": "bottom",
                  "border": {
                    "left": {
                      "clr": "#000000",
                      "type": "thin"
                    },
                    "top": {
                      "clr": "#000000",
                      "type": "thin"
                    },
                    "bottom": {
                      "clr": "#000000",
                      "type": "thin"
                    },
                    "right": {
                      "clr": "#000000",
                      "type": "thin"
                    }
                  }
                },
                "fontAttrs": {
                  "def": {
                    "color": "#000000",
                    "family": "Calibri",
                    "size": 11
                  }
                },
                "validations": [
                  {
                    "validate": "value",
                    "operator": "equals",
                    "extrainfo": {
                      "ignoreCase": true,
                      "trimWhitespace": true
                    },
                    "id": "R1.1",
                    "status": "pass"
                  }
                ]
              },
              {
                "index": 4,
                "ref": "E9",
                "style": {
                  "verticalAlign": "bottom",
                  "border": {
                    "left": {
                      "clr": "#000000",
                      "type": "thin"
                    },
                    "top": {
                      "clr": "#000000",
                      "type": "thin"
                    },
                    "bottom": {
                      "clr": "#000000",
                      "type": "thin"
                    },
                    "right": {
                      "clr": "#000000",
                      "type": "thin"
                    }
                  }
                },
                "fontAttrs": {
                  "def": {
                    "color": "#000000",
                    "family": "Calibri",
                    "size": 11
                  }
                }
              },
              {
                "value": 390000,
                "index": 5,
                "ref": "F9",
                "style": {
                  "format": "_(\"$\"* #,##0_);_(\"$\"* \\(#,##0\\);_(\"$\"* \"-\"??_);_(@_)",
                  "verticalAlign": "bottom",
                  "border": {
                    "left": {
                      "clr": "#000000",
                      "type": "thin"
                    },
                    "top": {
                      "clr": "#000000",
                      "type": "thin"
                    },
                    "bottom": {
                      "clr": "#000000",
                      "type": "thin"
                    },
                    "right": {
                      "clr": "#000000",
                      "type": "thin"
                    }
                  }
                },
                "fontAttrs": {
                  "def": {
                    "color": "#000000",
                    "family": "Calibri",
                    "size": 11
                  }
                },
                "validations": [
                  {
                    "validate": "value",
                    "operator": "equals",
                    "extrainfo": {
                      "ignoreCase": true,
                      "trimWhitespace": true
                    },
                    "id": "R2.1",
                    "status": "pass"
                  },
                  {
                    "validate": "style.format",
                    "operator": "equals",
                    "id": "R2.2",
                    "status": "pass"
                  }
                ]
              }
            ]
          },
          {
            "visible": true,
            "index": 9,
            "#cells": [
              {
                "index": 2,
                "ref": "C10",
                "style": {
                  "border": {
                    "right": {
                      "clr": "#000000",
                      "type": "thin"
                    }
                  }
                }
              },
              {
                "value": "Less: Cost of goods sold",
                "index": 3,
                "ref": "D10",
                "style": {
                  "verticalAlign": "bottom",
                  "border": {
                    "left": {
                      "clr": "#000000",
                      "type": "thin"
                    },
                    "top": {
                      "clr": "#000000",
                      "type": "thin"
                    },
                    "bottom": {
                      "clr": "#000000",
                      "type": "thin"
                    },
                    "right": {
                      "clr": "#000000",
                      "type": "thin"
                    }
                  }
                },
                "fontAttrs": {
                  "def": {
                    "color": "#000000",
                    "family": "Calibri",
                    "size": 11
                  }
                },
                "validations": [
                  {
                    "validate": "value",
                    "operator": "equals",
                    "extrainfo": {
                      "ignoreCase": true,
                      "trimWhitespace": true
                    },
                    "id": "R3.1",
                    "status": "pass"
                  }
                ]
              },
              {
                "index": 4,
                "ref": "E10",
                "style": {
                  "verticalAlign": "bottom",
                  "border": {
                    "left": {
                      "clr": "#000000",
                      "type": "thin"
                    },
                    "top": {
                      "clr": "#000000",
                      "type": "thin"
                    },
                    "bottom": {
                      "clr": "#000000",
                      "type": "thin"
                    },
                    "right": {
                      "clr": "#000000",
                      "type": "thin"
                    }
                  }
                },
                "fontAttrs": {
                  "def": {
                    "color": "#000000",
                    "size": 11,
                    "family": "Calibri"
                  }
                }
              },
              {
                "value": 230800,
                "index": 5,
                "ref": "F10",
                "style": {
                  "format": "_(\"$\"* #,##0_);_(\"$\"* \\(#,##0\\);_(\"$\"* \"-\"??_);_(@_)",
                  "verticalAlign": "bottom",
                  "border": {
                    "left": {
                      "clr": "#000000",
                      "type": "thin"
                    },
                    "top": {
                      "clr": "#000000",
                      "type": "thin"
                    },
                    "bottom": {
                      "clr": "#000000",
                      "type": "thin"
                    },
                    "right": {
                      "clr": "#000000",
                      "type": "thin"
                    }
                  }
                },
                "fontAttrs": {
                  "def": {
                    "color": "#000000",
                    "family": "Calibri",
                    "size": 11
                  }
                },
                "validations": [
                  {
                    "validate": "value",
                    "operator": "equals",
                    "extrainfo": {
                      "ignoreCase": true,
                      "trimWhitespace": true
                    },
                    "id": "R4.1",
                    "status": "pass"
                  },
                  {
                    "validate": "style.format",
                    "operator": "equals",
                    "id": "R4.2",
                    "status": "pass"
                  }
                ]
              }
            ]
          },
          {
            "visible": true,
            "index": 10,
            "#cells": [
              {
                "index": 2,
                "ref": "C11",
                "style": {
                  "border": {
                    "right": {
                      "clr": "#000000",
                      "type": "thin"
                    }
                  }
                }
              },
              {
                "value": "Gross profit",
                "index": 3,
                "ref": "D11",
                "style": {
                  "verticalAlign": "bottom",
                  "border": {
                    "left": {
                      "clr": "#000000",
                      "type": "thin"
                    },
                    "top": {
                      "clr": "#000000",
                      "type": "thin"
                    },
                    "bottom": {
                      "clr": "#000000",
                      "type": "thin"
                    },
                    "right": {
                      "clr": "#000000",
                      "type": "thin"
                    }
                  }
                },
                "fontAttrs": {
                  "def": {
                    "color": "#000000",
                    "family": "Calibri",
                    "size": 11
                  }
                },
                "validations": [
                  {
                    "validate": "value",
                    "operator": "equals",
                    "extrainfo": {
                      "ignoreCase": true,
                      "trimWhitespace": true
                    },
                    "id": "R5.1",
                    "status": "pass"
                  }
                ]
              },
              {
                "index": 4,
                "ref": "E11",
                "style": {
                  "verticalAlign": "bottom",
                  "border": {
                    "left": {
                      "clr": "#000000",
                      "type": "thin"
                    },
                    "top": {
                      "clr": "#000000",
                      "type": "thin"
                    },
                    "bottom": {
                      "clr": "#000000",
                      "type": "thin"
                    },
                    "right": {
                      "clr": "#000000",
                      "type": "thin"
                    }
                  }
                },
                "fontAttrs": {
                  "def": {
                    "color": "#000000",
                    "size": 11,
                    "family": "Calibri"
                  }
                }
              },
              {
                "value": 159200,
                "index": 5,
                "formula": "F9-F10",
                "ref": "F11",
                "style": {
                  "format": "_(\"$\"* #,##0_);_(\"$\"* \\(#,##0\\);_(\"$\"* \"-\"??_);_(@_)",
                  "verticalAlign": "bottom",
                  "border": {
                    "left": {
                      "clr": "#000000",
                      "type": "thin"
                    },
                    "top": {
                      "clr": "#000000",
                      "type": "thin"
                    },
                    "bottom": {
                      "clr": "#000000",
                      "type": "thin"
                    },
                    "right": {
                      "clr": "#000000",
                      "type": "thin"
                    }
                  }
                },
                "fontAttrs": {
                  "def": {
                    "color": "#000000",
                    "family": "Calibri",
                    "size": 11
                  }
                },
                "validations": [
                  {
                    "validate": "value",
                    "operator": "equals",
                    "extrainfo": {
                      "ignoreCase": true,
                      "trimWhitespace": true
                    },
                    "id": "R6.1",
                    "status": "pass"
                  },
                  {
                    "validate": "formula",
                    "operator": "equals",
                    "extrainfo": {
                      "ignoreCase": true
                    },
                    "id": "R6.2",
                    "status": "pass"
                  },
                  {
                    "validate": "style.format",
                    "operator": "equals",
                    "id": "R6.3",
                    "status": "pass"
                  }
                ]
              }
            ]
          },
          {
            "visible": true,
            "index": 11,
            "#cells": [
              {
                "index": 2,
                "ref": "C12",
                "style": {
                  "border": {
                    "right": {
                      "clr": "#000000",
                      "type": "thin"
                    }
                  }
                }
              },
              {
                "value": "Less operating expenses:",
                "index": 3,
                "ref": "D12",
                "style": {
                  "verticalAlign": "bottom",
                  "border": {
                    "left": {
                      "clr": "#000000",
                      "type": "thin"
                    },
                    "top": {
                      "clr": "#000000",
                      "type": "thin"
                    },
                    "bottom": {
                      "clr": "#000000",
                      "type": "thin"
                    },
                    "right": {
                      "clr": "#000000",
                      "type": "thin"
                    }
                  }
                },
                "fontAttrs": {
                  "def": {
                    "color": "#000000",
                    "family": "Calibri",
                    "size": 11
                  }
                },
                "validations": [
                  {
                    "validate": "value",
                    "operator": "equals",
                    "extrainfo": {
                      "ignoreCase": true,
                      "trimWhitespace": true
                    },
                    "id": "R7.1",
                    "status": "pass"
                  }
                ]
              },
              {
                "index": 4,
                "ref": "E12",
                "style": {
                  "verticalAlign": "bottom",
                  "border": {
                    "left": {
                      "clr": "#000000",
                      "type": "thin"
                    },
                    "top": {
                      "clr": "#000000",
                      "type": "thin"
                    },
                    "bottom": {
                      "clr": "#000000",
                      "type": "thin"
                    },
                    "right": {
                      "clr": "#000000",
                      "type": "thin"
                    }
                  }
                },
                "fontAttrs": {
                  "def": {
                    "color": "#000000",
                    "size": 11,
                    "family": "Calibri"
                  }
                }
              },
              {
                "index": 5,
                "ref": "F12",
                "style": {
                  "verticalAlign": "bottom",
                  "border": {
                    "left": {
                      "clr": "#000000",
                      "type": "thin"
                    },
                    "top": {
                      "clr": "#000000",
                      "type": "thin"
                    },
                    "bottom": {
                      "clr": "#000000",
                      "type": "thin"
                    },
                    "right": {
                      "clr": "#000000",
                      "type": "thin"
                    }
                  }
                },
                "fontAttrs": {
                  "def": {
                    "color": "#000000",
                    "family": "Calibri",
                    "size": 11
                  }
                }
              }
            ]
          },
          {
            "visible": true,
            "index": 12,
            "#cells": [
              {
                "index": 2,
                "ref": "C13",
                "style": {
                  "border": {
                    "right": {
                      "clr": "#000000",
                      "type": "thin"
                    }
                  }
                }
              },
              {
                "value": "General and administrative expenses",
                "index": 3,
                "ref": "D13",
                "style": {
                  "verticalAlign": "bottom",
                  "border": {
                    "left": {
                      "clr": "#000000",
                      "type": "thin"
                    },
                    "top": {
                      "clr": "#000000",
                      "type": "thin"
                    },
                    "bottom": {
                      "clr": "#000000",
                      "type": "thin"
                    },
                    "right": {
                      "clr": "#000000",
                      "type": "thin"
                    }
                  }
                },
                "fontAttrs": {
                  "def": {
                    "color": "#000000",
                    "family": "Calibri",
                    "size": 11
                  }
                },
                "validations": [
                  {
                    "validate": "value",
                    "operator": "equals",
                    "extrainfo": {
                      "ignoreCase": true,
                      "trimWhitespace": true
                    },
                    "id": "R8.1",
                    "status": "pass"
                  }
                ]
              },
              {
                "index": 4,
                "ref": "E13",
                "style": {
                  "format": "_(\"$\"* #,##0_);_(\"$\"* \\(#,##0\\);_(\"$\"* \"-\"??_);_(@_)",
                  "verticalAlign": "bottom",
                  "border": {
                    "left": {
                      "clr": "#000000",
                      "type": "thin"
                    },
                    "top": {
                      "clr": "#000000",
                      "type": "thin"
                    },
                    "bottom": {
                      "clr": "#000000",
                      "type": "thin"
                    },
                    "right": {
                      "clr": "#000000",
                      "type": "thin"
                    }
                  }
                },
                "fontAttrs": {
                  "def": {
                    "color": "#000000",
                    "size": 11,
                    "family": "Calibri"
                  }
                },
                "value": 27500,
                "validations": [
                  {
                    "validate": "value",
                    "operator": "equals",
                    "extrainfo": {
                      "ignoreCase": true,
                      "trimWhitespace": true
                    },
                    "id": "R9.1",
                    "status": "pass"
                  },
                  {
                    "validate": "style.format",
                    "operator": "equals",
                    "id": "R9.2",
                    "status": "pass"
                  }
                ]
              },
              {
                "index": 5,
                "ref": "F13",
                "style": {
                  "verticalAlign": "bottom",
                  "border": {
                    "left": {
                      "clr": "#000000",
                      "type": "thin"
                    },
                    "top": {
                      "clr": "#000000",
                      "type": "thin"
                    },
                    "bottom": {
                      "clr": "#000000",
                      "type": "thin"
                    },
                    "right": {
                      "clr": "#000000",
                      "type": "thin"
                    }
                  }
                },
                "fontAttrs": {
                  "def": {
                    "color": "#000000",
                    "family": "Calibri",
                    "size": 11
                  }
                }
              }
            ]
          },
          {
            "visible": true,
            "index": 13,
            "#cells": [
              {
                "index": 2,
                "ref": "C14",
                "style": {
                  "border": {
                    "right": {
                      "clr": "#000000",
                      "type": "thin"
                    }
                  }
                }
              },
              {
                "value": "Marketing expenses",
                "index": 3,
                "ref": "D14",
                "style": {
                  "verticalAlign": "bottom",
                  "border": {
                    "left": {
                      "clr": "#000000",
                      "type": "thin"
                    },
                    "top": {
                      "clr": "#000000",
                      "type": "thin"
                    },
                    "bottom": {
                      "clr": "#000000",
                      "type": "thin"
                    },
                    "right": {
                      "clr": "#000000",
                      "type": "thin"
                    }
                  }
                },
                "fontAttrs": {
                  "def": {
                    "color": "#000000",
                    "family": "Calibri",
                    "size": 11
                  }
                },
                "validations": [
                  {
                    "validate": "value",
                    "operator": "equals",
                    "extrainfo": {
                      "ignoreCase": true,
                      "trimWhitespace": true
                    },
                    "id": "R10.1",
                    "status": "pass"
                  }
                ]
              },
              {
                "index": 4,
                "ref": "E14",
                "style": {
                  "format": "_(\"$\"* #,##0_);_(\"$\"* \\(#,##0\\);_(\"$\"* \"-\"??_);_(@_)",
                  "verticalAlign": "bottom",
                  "border": {
                    "left": {
                      "clr": "#000000",
                      "type": "thin"
                    },
                    "top": {
                      "clr": "#000000",
                      "type": "thin"
                    },
                    "bottom": {
                      "clr": "#000000",
                      "type": "thin"
                    },
                    "right": {
                      "clr": "#000000",
                      "type": "thin"
                    }
                  }
                },
                "fontAttrs": {
                  "def": {
                    "color": "#000000",
                    "size": 11,
                    "family": "Calibri"
                  }
                },
                "value": 76000,
                "validations": [
                  {
                    "validate": "value",
                    "operator": "equals",
                    "extrainfo": {
                      "ignoreCase": true,
                      "trimWhitespace": true
                    },
                    "id": "R11.1",
                    "status": "pass"
                  },
                  {
                    "validate": "style.format",
                    "operator": "equals",
                    "id": "R11.2",
                    "status": "pass"
                  }
                ]
              },
              {
                "index": 5,
                "ref": "F14",
                "style": {
                  "verticalAlign": "bottom",
                  "border": {
                    "left": {
                      "clr": "#000000",
                      "type": "thin"
                    },
                    "top": {
                      "clr": "#000000",
                      "type": "thin"
                    },
                    "bottom": {
                      "clr": "#000000",
                      "type": "thin"
                    },
                    "right": {
                      "clr": "#000000",
                      "type": "thin"
                    }
                  }
                },
                "fontAttrs": {
                  "def": {
                    "color": "#000000",
                    "family": "Calibri",
                    "size": 11
                  }
                }
              }
            ]
          },
          {
            "visible": true,
            "index": 14,
            "#cells": [
              {
                "index": 2,
                "ref": "C15",
                "style": {
                  "border": {
                    "right": {
                      "clr": "#000000",
                      "type": "thin"
                    }
                  }
                }
              },
              {
                "index": 3,
                "ref": "D15",
                "style": {
                  "verticalAlign": "bottom",
                  "border": {
                    "left": {
                      "clr": "#000000",
                      "type": "thin"
                    },
                    "top": {
                      "clr": "#000000",
                      "type": "thin"
                    },
                    "bottom": {
                      "clr": "#000000",
                      "type": "thin"
                    },
                    "right": {
                      "clr": "#000000",
                      "type": "thin"
                    }
                  }
                },
                "fontAttrs": {
                  "def": {
                    "color": "#000000",
                    "size": 11,
                    "family": "Calibri"
                  }
                },
                "value": "Total operating expenses",
                "validations": [
                  {
                    "validate": "value",
                    "operator": "equals",
                    "extrainfo": {
                      "ignoreCase": true,
                      "trimWhitespace": true
                    },
                    "id": "R12.1",
                    "status": "pass"
                  }
                ]
              },
              {
                "index": 4,
                "ref": "E15",
                "style": {
                  "verticalAlign": "bottom",
                  "border": {
                    "left": {
                      "clr": "#000000",
                      "type": "thin"
                    },
                    "top": {
                      "clr": "#000000",
                      "type": "thin"
                    },
                    "bottom": {
                      "clr": "#000000",
                      "type": "thin"
                    },
                    "right": {
                      "clr": "#000000",
                      "type": "thin"
                    }
                  }
                },
                "fontAttrs": {
                  "def": {
                    "color": "#000000",
                    "family": "Calibri",
                    "size": 11
                  }
                }
              },
              {
                "value": 103500,
                "index": 5,
                "formula": "E13+E14",
                "ref": "F15",
                "style": {
                  "format": "_(\"$\"* #,##0_);_(\"$\"* \\(#,##0\\);_(\"$\"* \"-\"??_);_(@_)",
                  "verticalAlign": "bottom",
                  "border": {
                    "left": {
                      "clr": "#000000",
                      "type": "thin"
                    },
                    "top": {
                      "clr": "#000000",
                      "type": "thin"
                    },
                    "bottom": {
                      "clr": "#000000",
                      "type": "thin"
                    },
                    "right": {
                      "clr": "#000000",
                      "type": "thin"
                    }
                  }
                },
                "fontAttrs": {
                  "def": {
                    "color": "#000000",
                    "family": "Calibri",
                    "size": 11
                  }
                },
                "validations": [
                  {
                    "validate": "value",
                    "operator": "equals",
                    "extrainfo": {
                      "ignoreCase": true,
                      "trimWhitespace": true
                    },
                    "id": "R13.1",
                    "status": "pass"
                  },
                  {
                    "validate": "formula",
                    "operator": "equals",
                    "extrainfo": {
                      "ignoreCase": true
                    },
                    "id": "R13.2",
                    "status": "pass"
                  },
                  {
                    "validate": "style.format",
                    "operator": "equals",
                    "id": "R13.3",
                    "status": "pass"
                  }
                ]
              }
            ]
          },
          {
            "visible": true,
            "index": 15,
            "#cells": [
              {
                "index": 2,
                "ref": "C16",
                "style": {
                  "border": {
                    "right": {
                      "clr": "#000000",
                      "type": "thin"
                    }
                  }
                }
              },
              {
                "index": 3,
                "ref": "D16",
                "style": {
                  "verticalAlign": "bottom",
                  "border": {
                    "left": {
                      "clr": "#000000",
                      "type": "thin"
                    },
                    "top": {
                      "clr": "#000000",
                      "type": "thin"
                    },
                    "bottom": {
                      "clr": "#000000",
                      "type": "thin"
                    },
                    "right": {
                      "clr": "#000000",
                      "type": "thin"
                    }
                  }
                },
                "fontAttrs": {
                  "def": {
                    "color": "#000000",
                    "size": 11,
                    "family": "Calibri"
                  }
                },
                "value": "Operating income",
                "validations": [
                  {
                    "validate": "value",
                    "operator": "equals",
                    "extrainfo": {
                      "ignoreCase": true,
                      "trimWhitespace": true
                    },
                    "id": "R14.1",
                    "status": "pass"
                  }
                ]
              },
              {
                "index": 4,
                "ref": "E16",
                "style": {
                  "verticalAlign": "bottom",
                  "border": {
                    "left": {
                      "clr": "#000000",
                      "type": "thin"
                    },
                    "top": {
                      "clr": "#000000",
                      "type": "thin"
                    },
                    "bottom": {
                      "clr": "#000000",
                      "type": "thin"
                    },
                    "right": {
                      "clr": "#000000",
                      "type": "thin"
                    }
                  }
                },
                "fontAttrs": {
                  "def": {
                    "color": "#000000",
                    "family": "Calibri",
                    "size": 11
                  }
                }
              },
              {
                "value": 55700,
                "index": 5,
                "formula": "F11-F15",
                "ref": "F16",
                "style": {
                  "format": "_(\"$\"* #,##0_);_(\"$\"* \\(#,##0\\);_(\"$\"* \"-\"??_);_(@_)",
                  "verticalAlign": "bottom",
                  "border": {
                    "left": {
                      "clr": "#000000",
                      "type": "thin"
                    },
                    "top": {
                      "clr": "#000000",
                      "type": "thin"
                    },
                    "bottom": {
                      "clr": "#000000",
                      "type": "thin"
                    },
                    "right": {
                      "clr": "#000000",
                      "type": "thin"
                    }
                  }
                },
                "fontAttrs": {
                  "def": {
                    "color": "#000000",
                    "family": "Calibri",
                    "size": 11
                  }
                },
                "validations": [
                  {
                    "validate": "value",
                    "operator": "equals",
                    "extrainfo": {
                      "ignoreCase": true,
                      "trimWhitespace": true
                    },
                    "id": "R15.1",
                    "status": "pass"
                  },
                  {
                    "validate": "formula",
                    "operator": "equals",
                    "extrainfo": {
                      "ignoreCase": true
                    },
                    "id": "R15.2",
                    "status": "pass"
                  },
                  {
                    "validate": "style.format",
                    "operator": "equals",
                    "id": "R15.3",
                    "status": "pass"
                  }
                ]
              }
            ]
          },
          {
            "visible": true,
            "index": 16,
            "#cells": [
              {
                "index": 3,
                "ref": "D17",
                "style": {
                  "border": {
                    "top": {
                      "clr": "#000000",
                      "type": "thin"
                    }
                  }
                }
              },
              {
                "index": 4,
                "ref": "E17",
                "style": {
                  "border": {
                    "top": {
                      "clr": "#000000",
                      "type": "thin"
                    }
                  }
                }
              },
              {
                "index": 5,
                "ref": "F17",
                "style": {
                  "border": {
                    "top": {
                      "clr": "#000000",
                      "type": "thin"
                    }
                  }
                }
              }
            ]
          },
          {
            "visible": true,
            "index": 18,
            "#cells": [
              {
                "index": 4,
                "ref": "E19",
                "style": {
                  "verticalAlign": "bottom"
                },
                "fontAttrs": {
                  "def": {
                    "color": "#000000",
                    "family": "Calibri",
                    "size": 11
                  }
                }
              }
            ]
          }
        ],
        "#columns": [
          {
            "visible": true,
            "index": 3,
            "width": 240
          },
          {
            "visible": true,
            "index": 4,
            "width": 116
          },
          {
            "visible": true,
            "index": 5,
            "width": 103
          }
        ],
        "#mergedCells": [
          "D6:F6",
          "D7:F7",
          "D8:F8"
        ]
      }
    ]
  },
  "scoredJson": {
    "type": "Sum",
    "score": 100,
    "rules": [
      {
        "rules": [
          {
            "score": 6,
            "type": "Validation",
            "feedback": {
              "successText": "Cell Text should be \"Sales revenue\".",
              "failureText": "Cell Text should be \"Sales revenue\"."
            },
            "toleranceInfo": {
              "ignoreCase": true,
              "trimWhitespace": true
            },
            "id": "R1.1",
            "status": "pass",
            "gotScore": 6
          }
        ],
        "type": "Sum",
        "score": 6,
        "id": "R1",
        "gotScore": 6,
        "status": "pass",
        "hintPenaltyApplied": false
      },
      {
        "rules": [
          {
            "score": 3,
            "type": "Validation",
            "feedback": {
              "successText": "Cell Text should be \"$ 390,000\".",
              "failureText": "Cell Text should be \"$ 390,000\"."
            },
            "toleranceInfo": {
              "ignoreCase": true,
              "trimWhitespace": true
            },
            "id": "R2.1",
            "status": "pass",
            "gotScore": 3
          },
          {
            "score": 3,
            "type": "Validation",
            "feedback": {
              "successText": "\"_(\"$\"* #,##0_);_(\"$\"* \\(#,##0\\);_(\"$\"* \"-\"??_);_(@_)\" format should be applied.",
              "failureText": "\"_(\"$\"* #,##0_);_(\"$\"* \\(#,##0\\);_(\"$\"* \"-\"??_);_(@_)\" format should be applied."
            },
            "id": "R2.2",
            "status": "pass",
            "gotScore": 3
          }
        ],
        "type": "Sum",
        "score": 6,
        "id": "R2",
        "gotScore": 6,
        "status": "pass",
        "hintPenaltyApplied": false
      },
      {
        "rules": [
          {
            "score": 6,
            "type": "Validation",
            "feedback": {
              "successText": "Cell Text should be \"Less: Cost of goods sold\".",
              "failureText": "Cell Text should be \"Less: Cost of goods sold\"."
            },
            "toleranceInfo": {
              "ignoreCase": true,
              "trimWhitespace": true
            },
            "id": "R3.1",
            "status": "pass",
            "gotScore": 6
          }
        ],
        "type": "Sum",
        "score": 6,
        "id": "R3",
        "gotScore": 6,
        "status": "pass",
        "hintPenaltyApplied": false
      },
      {
        "rules": [
          {
            "score": 3,
            "type": "Validation",
            "feedback": {
              "successText": "Cell Text should be \"$ 230,800\".",
              "failureText": "Cell Text should be \"$ 230,800\"."
            },
            "toleranceInfo": {
              "ignoreCase": true,
              "trimWhitespace": true
            },
            "id": "R4.1",
            "status": "pass",
            "gotScore": 3
          },
          {
            "score": 3,
            "type": "Validation",
            "feedback": {
              "successText": "\"_(\"$\"* #,##0_);_(\"$\"* \\(#,##0\\);_(\"$\"* \"-\"??_);_(@_)\" format should be applied.",
              "failureText": "\"_(\"$\"* #,##0_);_(\"$\"* \\(#,##0\\);_(\"$\"* \"-\"??_);_(@_)\" format should be applied."
            },
            "id": "R4.2",
            "status": "pass",
            "gotScore": 3
          }
        ],
        "type": "Sum",
        "score": 6,
        "id": "R4",
        "gotScore": 6,
        "status": "pass",
        "hintPenaltyApplied": false
      },
      {
        "rules": [
          {
            "score": 6,
            "type": "Validation",
            "feedback": {
              "successText": "Cell Text should be \"Gross profit\".",
              "failureText": "Cell Text should be \"Gross profit\"."
            },
            "toleranceInfo": {
              "ignoreCase": true,
              "trimWhitespace": true
            },
            "id": "R5.1",
            "status": "pass",
            "gotScore": 6
          }
        ],
        "type": "Sum",
        "score": 6,
        "id": "R5",
        "gotScore": 6,
        "status": "pass",
        "hintPenaltyApplied": false
      },
      {
        "rules": [
          {
            "score": 2,
            "type": "Validation",
            "feedback": {
              "successText": "Cell Text should be \"$ 159,200\".",
              "failureText": "Cell Text should be \"$ 159,200\"."
            },
            "toleranceInfo": {
              "ignoreCase": true,
              "trimWhitespace": true
            },
            "id": "R6.1",
            "status": "pass",
            "gotScore": 2
          },
          {
            "score": 2,
            "type": "Validation",
            "feedback": {
              "successText": "Formula applied should be \"F9-F10\".",
              "failureText": "Formula applied should be \"F9-F10\"."
            },
            "toleranceInfo": {
              "ignoreCase": true
            },
            "id": "R6.2",
            "status": "pass",
            "gotScore": 2
          },
          {
            "score": 3,
            "type": "Validation",
            "feedback": {
              "successText": "\"_(\"$\"* #,##0_);_(\"$\"* \\(#,##0\\);_(\"$\"* \"-\"??_);_(@_)\" format should be applied.",
              "failureText": "\"_(\"$\"* #,##0_);_(\"$\"* \\(#,##0\\);_(\"$\"* \"-\"??_);_(@_)\" format should be applied."
            },
            "id": "R6.3",
            "status": "pass",
            "gotScore": 3
          }
        ],
        "type": "Sum",
        "score": 7,
        "id": "R6",
        "gotScore": 7,
        "status": "pass",
        "hintPenaltyApplied": false
      },
      {
        "rules": [
          {
            "score": 7,
            "type": "Validation",
            "feedback": {
              "successText": "Cell Text should be \"Less operating expenses:\".",
              "failureText": "Cell Text should be \"Less operating expenses:\"."
            },
            "toleranceInfo": {
              "ignoreCase": true,
              "trimWhitespace": true
            },
            "id": "R7.1",
            "status": "pass",
            "gotScore": 7
          }
        ],
        "type": "Sum",
        "score": 7,
        "id": "R7",
        "gotScore": 7,
        "status": "pass",
        "hintPenaltyApplied": false
      },
      {
        "rules": [
          {
            "score": 7,
            "type": "Validation",
            "feedback": {
              "successText": "Cell Text should be \"General and administrative expenses\".",
              "failureText": "Cell Text should be \"General and administrative expenses\"."
            },
            "toleranceInfo": {
              "ignoreCase": true,
              "trimWhitespace": true
            },
            "id": "R8.1",
            "status": "pass",
            "gotScore": 7
          }
        ],
        "type": "Sum",
        "score": 7,
        "id": "R8",
        "gotScore": 7,
        "status": "pass",
        "hintPenaltyApplied": false
      },
      {
        "rules": [
          {
            "score": 3,
            "type": "Validation",
            "feedback": {
              "successText": "Cell Text should be \"$ 27,500\".",
              "failureText": "Cell Text should be \"$ 27,500\"."
            },
            "toleranceInfo": {
              "ignoreCase": true,
              "trimWhitespace": true
            },
            "id": "R9.1",
            "status": "pass",
            "gotScore": 3
          },
          {
            "score": 4,
            "type": "Validation",
            "feedback": {
              "successText": "\"_(\"$\"* #,##0_);_(\"$\"* \\(#,##0\\);_(\"$\"* \"-\"??_);_(@_)\" format should be applied.",
              "failureText": "\"_(\"$\"* #,##0_);_(\"$\"* \\(#,##0\\);_(\"$\"* \"-\"??_);_(@_)\" format should be applied."
            },
            "id": "R9.2",
            "status": "pass",
            "gotScore": 4
          }
        ],
        "type": "Sum",
        "score": 7,
        "id": "R9",
        "gotScore": 7,
        "status": "pass",
        "hintPenaltyApplied": false
      },
      {
        "rules": [
          {
            "score": 7,
            "type": "Validation",
            "feedback": {
              "successText": "Cell Text should be \"Marketing expenses\".",
              "failureText": "Cell Text should be \"Marketing expenses\"."
            },
            "toleranceInfo": {
              "ignoreCase": true,
              "trimWhitespace": true
            },
            "id": "R10.1",
            "status": "pass",
            "gotScore": 7
          }
        ],
        "type": "Sum",
        "score": 7,
        "id": "R10",
        "gotScore": 7,
        "status": "pass",
        "hintPenaltyApplied": false
      },
      {
        "rules": [
          {
            "score": 3,
            "type": "Validation",
            "feedback": {
              "successText": "Cell Text should be \"$ 76,000\".",
              "failureText": "Cell Text should be \"$ 76,000\"."
            },
            "toleranceInfo": {
              "ignoreCase": true,
              "trimWhitespace": true
            },
            "id": "R11.1",
            "status": "pass",
            "gotScore": 3
          },
          {
            "score": 4,
            "type": "Validation",
            "feedback": {
              "successText": "\"_(\"$\"* #,##0_);_(\"$\"* \\(#,##0\\);_(\"$\"* \"-\"??_);_(@_)\" format should be applied.",
              "failureText": "\"_(\"$\"* #,##0_);_(\"$\"* \\(#,##0\\);_(\"$\"* \"-\"??_);_(@_)\" format should be applied."
            },
            "id": "R11.2",
            "status": "pass",
            "gotScore": 4
          }
        ],
        "type": "Sum",
        "score": 7,
        "id": "R11",
        "gotScore": 7,
        "status": "pass",
        "hintPenaltyApplied": false
      },
      {
        "rules": [
          {
            "score": 7,
            "type": "Validation",
            "feedback": {
              "successText": "Cell Text should be \"Total operating expenses\".",
              "failureText": "Cell Text should be \"Total operating expenses\"."
            },
            "toleranceInfo": {
              "ignoreCase": true,
              "trimWhitespace": true
            },
            "id": "R12.1",
            "status": "pass",
            "gotScore": 7
          }
        ],
        "type": "Sum",
        "score": 7,
        "id": "R12",
        "gotScore": 7,
        "status": "pass",
        "hintPenaltyApplied": false
      },
      {
        "rules": [
          {
            "score": 2,
            "type": "Validation",
            "feedback": {
              "successText": "Cell Text should be \"$ 103,500\".",
              "failureText": "Cell Text should be \"$ 103,500\"."
            },
            "toleranceInfo": {
              "ignoreCase": true,
              "trimWhitespace": true
            },
            "id": "R13.1",
            "status": "pass",
            "gotScore": 2
          },
          {
            "score": 2,
            "type": "Validation",
            "feedback": {
              "successText": "Formula applied should be \"E13+E14\".",
              "failureText": "Formula applied should be \"E13+E14\"."
            },
            "toleranceInfo": {
              "ignoreCase": true
            },
            "id": "R13.2",
            "status": "pass",
            "gotScore": 2
          },
          {
            "score": 3,
            "type": "Validation",
            "feedback": {
              "successText": "\"_(\"$\"* #,##0_);_(\"$\"* \\(#,##0\\);_(\"$\"* \"-\"??_);_(@_)\" format should be applied.",
              "failureText": "\"_(\"$\"* #,##0_);_(\"$\"* \\(#,##0\\);_(\"$\"* \"-\"??_);_(@_)\" format should be applied."
            },
            "id": "R13.3",
            "status": "pass",
            "gotScore": 3
          }
        ],
        "type": "Sum",
        "score": 7,
        "id": "R13",
        "gotScore": 7,
        "status": "pass",
        "hintPenaltyApplied": false
      },
      {
        "rules": [
          {
            "score": 7,
            "type": "Validation",
            "feedback": {
              "successText": "Cell Text should be \"Operating income\".",
              "failureText": "Cell Text should be \"Operating income\"."
            },
            "toleranceInfo": {
              "ignoreCase": true,
              "trimWhitespace": true
            },
            "id": "R14.1",
            "status": "pass",
            "gotScore": 7
          }
        ],
        "type": "Sum",
        "score": 7,
        "id": "R14",
        "gotScore": 7,
        "status": "pass",
        "hintPenaltyApplied": false
      },
      {
        "rules": [
          {
            "score": 2,
            "type": "Validation",
            "feedback": {
              "successText": "Cell Text should be \"$ 55,700\".",
              "failureText": "Cell Text should be \"$ 55,700\"."
            },
            "toleranceInfo": {
              "ignoreCase": true,
              "trimWhitespace": true
            },
            "id": "R15.1",
            "status": "pass",
            "gotScore": 2
          },
          {
            "score": 2,
            "type": "Validation",
            "feedback": {
              "successText": "Formula applied should be \"F11-F15\".",
              "failureText": "Formula applied should be \"F11-F15\"."
            },
            "toleranceInfo": {
              "ignoreCase": true
            },
            "id": "R15.2",
            "status": "pass",
            "gotScore": 2
          },
          {
            "score": 3,
            "type": "Validation",
            "feedback": {
              "successText": "\"_(\"$\"* #,##0_);_(\"$\"* \\(#,##0\\);_(\"$\"* \"-\"??_);_(@_)\" format should be applied.",
              "failureText": "\"_(\"$\"* #,##0_);_(\"$\"* \\(#,##0\\);_(\"$\"* \"-\"??_);_(@_)\" format should be applied."
            },
            "id": "R15.3",
            "status": "pass",
            "gotScore": 3
          }
        ],
        "type": "Sum",
        "score": 7,
        "id": "R15",
        "gotScore": 7,
        "status": "pass",
        "hintPenaltyApplied": false
      }
    ],
    "gotScore": 100,
    "status": "pass",
    "hintPenaltyApplied": false
  }
}