{
  "Cells": [
    {
      "sheetName": "Sheet2",
      "cellName": "B1",
      "properties": [
        {
          "propName": "Cell Value",
          "propValue": "Applied"
        }
      ]
    },
    {
      "sheetName": "Sheet2",
      "cellName": "B4",
      "properties": [
        {
          "propName": "Cell Value",
          "propValue": "Not Applied"
        }
      ]
    },
    {
      "sheetName": "Sheet2",
      "cellName": "B5",
      "properties": [
        {
          "propName": "Cell Value",
          "propValue": "Not Applied"
        }
      ]
    },
    {
      "sheetName": "Sheet2",
      "cellName": "B7",
      "properties": [
        {
          "propName": "Cell Value",
          "propValue": "Double "
        }
      ]
    },
    {
      "sheetName": "Sheet2",
      "cellName": "B8",
      "properties": [
        {
          "propName": "Cell Value",
          "propValue": "Top"
        }
      ]
    },
    {
      "sheetName": "Sheet2",
      "cellName": "B16",
      "properties": [
        {
          "propName": "Cell Value",
          "propValue": "Center"
        }
      ]
    },
    {
      "sheetName": "Sheet2",
      "cellName": "B21",
      "properties": [
        {
          "propName": "Cell Value",
          "propValue": "Applied"
        }
      ]
    },
    {
      "sheetName": "Sheet2",
      "cellName": "B22",
      "properties": [
        {
          "propName": "Cell Value",
          "propValue": "Not Applied"
        }
      ]
    },
    {
      "sheetName": "Sheet2",
      "cellName": "B23",
      "properties": [
        {
          "propName": "Cell Value",
          "propValue": "Dark Red"
        }
      ]
    },
    {
      "sheetName": "Sheet2",
      "cellName": "B35",
      "properties": [
        {
          "propName": "Cell Value",
          "propValue": "#CC99FF"
        }
      ]
    },
    {
      "sheetName": "Sheet2",
      "cellName": "B37",
      "properties": [
        {
          "propName": "Cell Value",
          "propValue": "Red"
        },
        {
          "propName": "Fill Color",
          "propValue": "Red"
        }
      ]
    },
    {
      "sheetName": "Sheet2",
      "cellName": "B47",
      "properties": [
        {
          "propName": "Cell Value",
          "propValue": "#7c7c7c"
        },
        {
          "propName": "Fill Color",
          "propValue": "#7c7c7c"
        }
      ]
    },
    {
      "sheetName": "Sheet2",
      "cellName": "B49",
      "properties": [
        {
          "propName": "Cell Value",
          "propValue": "abcd"
        }
      ]
    },
    {
      "sheetName": "Sheet2",
      "cellName": "B70",
      "properties": [
        {
          "propName": "Cell Value",
          "propValue": "13:30:00 AM"
        }
      ]
    },
    {
      "sheetName": "Sheet2",
      "cellName": "B72",
      "properties": [
        {
          "propName": "Cell Value",
          "propValue": "13:30"
        }
      ]
    },
    {
      "sheetName": "Sheet2",
      "cellName": "B77",
      "properties": [
        {
          "propName": "Cell Value",
          "propValue": "5566%"
        }
      ]
    },
    {
      "sheetName": "Sheet2",
      "cellName": "B80",
      "properties": [
        {
          "propName": "Cell Value",
          "propValue": "22 2/9"
        }
      ]
    },
    {
      "sheetName": "Sheet2",
      "cellName": "B86",
      "properties": [
        {
          "propName": "Cell Value",
          "propValue": "abcdpqrs"
        }
      ]
    },
    {
      "sheetName": "Sheet1",
      "cellName": "A2",
      "properties": [
        {
          "propName": "Cell Value",
          "propValue": "1,234.00000000"
        }
      ]
    },
    {
      "sheetName": "Sheet1",
      "cellName": "E2",
      "properties": [
        {
          "propName": "Cell Value",
          "propValue": "10 1/2"
        }
      ]
    },
    {
      "sheetName": "Sheet1",
      "cellName": "F2",
      "properties": [
        {
          "propName": "Cell Value",
          "propValue": "123400.0000000000000000000%"
        }
      ]
    },
    {
      "sheetName": "Sheet1",
      "cellName": "H2",
      "properties": [
        {
          "propName": "Cell Value",
          "propValue": "abcd"
        }
      ]
    },
    {
      "sheetName": "Sheet1",
      "cellName": "B3",
      "properties": [
        {
          "propName": "Cell Value",
          "propValue": "$12,345.00000000"
        }
      ]
    },
    {
      "sheetName": "Sheet1",
      "cellName": "D3",
      "properties": [
        {
          "propName": "Cell Value",
          "propValue": "Friday, November 06, 2020"
        }
      ]
    },
    {
      "sheetName": "Sheet1",
      "cellName": "G3",
      "properties": [
        {
          "propName": "Cell Value",
          "propValue": "1.00000E+09"
        }
      ]
    },
    {
      "sheetName": "Sheet1",
      "cellName": "J3",
      "properties": [
        {
          "propName": "Cell Value",
          "propValue": "@#$%^*()_+|!~"
        }
      ]
    },
    {
      "sheetName": "Sheet1",
      "cellName": "C4",
      "properties": [
        {
          "propName": "Cell Value",
          "propValue": "$12,345.00000"
        }
      ]
    },
    {
      "sheetName": "Sheet1",
      "cellName": "B6",
      "properties": [
        {
          "propName": "Cell Value",
          "propValue": "12,345.00 ₽"
        }
      ]
    },
    {
      "sheetName": "Sheet1",
      "cellName": "C6",
      "properties": [
        {
          "propName": "Cell Value",
          "propValue": "-$55.55"
        }
      ]
    },
    {
      "sheetName": "Sheet1",
      "cellName": "I6",
      "properties": [
        {
          "propName": "Cell Value",
          "propValue": "5:00:00 AM"
        }
      ]
    },
    {
      "sheetName": "Sheet1",
      "cellName": "D7",
      "properties": [
        {
          "propName": "Cell Value",
          "propValue": "11/06/20"
        }
      ]
    },
    {
      "sheetName": "Sheet1",
      "cellName": "A8",
      "properties": [
        {
          "propName": "Cell Value",
          "propValue": "(121.22)"
        }
      ]
    }
  ]
}