{	
	"paint" : {
		"qa" : {
			"url": "https://qa-paint.backoffice.comprodls.com",
        	"org" : "leonardo-dev",
			"username": "vm1@yopmail.com",
        	"password": "Welcome@1"
		},

		"staging" : {
			"url": "https://stg-paint.backoffice.comprodls.com/",
        	"org" : "leonardo-dev",
        	"username": "vm1@yopmail.com",
        	"password": "Welcome@1"
		},

		"production" : {
			"url": "http://paint.leonardodls.com/",
        	"org" : "leonardo-dev",
        	"username": "qa_automation",
        	"password": "qa_automation"
		}
	},

	"player" : {
		"default" : {	
		}
	},

	"itemrenderer" : {
		"qa" : {
			"url": "https://leonardo-sdk-dev.herokuapp.com/embedframe/"
		},

		"staging" : {
			"url": "https://leonardo-sdk-stg.herokuapp.com/embedframe/"
		},

		"production" : {
			"url": "https://sdk.leonardodls.com/embedframe/"
		},

		"testbench" : {
			"url": "http://compro:c0mpr0@leonardo-item-player-test.herokuapp.com/testbench",
			"name" : "leo-question-player",
			"version" : "latest",
			"itemJSON" : "",
			"uiOverrides" : "{\"widgetStyles\": {\"box-shadow\": \"6px 6px 9px #ddd\",\"border\": \"1px solid #ddd\"},\"showGradingStatus\": false,\"showFeedbackOnlyIfValueChanged\": false}",
			"containerSettings" : {
				"width" : "1600px",
				"height" : "700px"
			}
		}
	}
}