[
  {
    "version": "1",
    "testDetails": [
      {
        "testCaseType": "OutOfOrder",
        "testCasePath": "matcherTestOO.json",
        "testCaseIds": [
          "MTC01",
          "MTC02",
          "MTC03",
          "MTC04",
          "MTC05",
          "MTC06",
          "MTC08",
          "MTC09",
          "MTC10",
          "MTC11",
          "MTC12",
          "MTC13",
          "MTC14",
          "MTC15",
          "MTC16",
          "MTC17",
          "MTC18",
          "MTC19",
          "MTC20",
          "MTC21",
          "MTC23",
          "MTC24",
          "MTC25",
          "MTC26",
          "MTC27",
          "MTC28",
          "MTC29",
          "MTC30",
          "MTCN01",
          "MTCF01",
          "MTC32",
          "MTCF02"
         
        ]
      },
      {
        "testCaseType": "Positional",
        "testCasePath": "matcherTestPos.json",
        "testCaseIds": [
          "PTC01",
          "PTC02",
          "PTC03",
          "PTC04",
          "PTC05",
          "PTC06",
          "PTC07",
          "PTC08"
        ]
      }
    ]
  },
  {
    "version": "2",
    "testDetails": [
      {
        "testCaseType": "Positional",
        "testCasePath": "matcherTestPos.json",
        "testCaseIds": [
          "PTC01",
          "PTC02",
          "PTC03",
          "PTC04",
          "PTC05",
          "PTC06",
          "PTC07",
          "PTC08"
        ]
      
      },
      {
        "testCaseType": "Positional",
        "testCasePath": "matcherTestPos.json",
        "testCaseIds": [
          "PTC01",
          "PTC02"
        ]
      }
    ]
  }
]