[
    {
        "TCID":"TC_GDS_TOJSON_1",
        "TestCase":"Uploading a valid JSON File and requesting v0.1 Grid JSON",
        "Tags":"P1, loadJSON",
        "FunctionName":"jsonToJson",
        "InputFile": "Testdata_JSON_GDS.json",
        "Expected": "JSON_Validation.json",
        "GDSVersion": "0.1"
    },
    {
        "TCID":"TC_GDS_TOJSON_2",
        "TestCase":"Uploading a valid JSON File",
        "Tags":"P1, loadJSON",
        "FunctionName":"jsonToJson",
        "InputFile": "Testdata_JSON_GDS.json",
        "Expected": "JSON_Validation.json",
        "GDSVersion":""
    },
    {
        "TCID":"TC_GDS_LDJSON_2",
        "TestCase":"Uploading a valid JSON File (without @schemaVersion property)",
        "Tags":"P1, loadJSON",
        "FunctionName":"jsonToJson",
        "InputFile": "JSON_without_schemaVersion.json",
        "Expected": "JSON_Validation.json",
        "GDSVersion":"0.1"
    }
]