{
  "type": "Sum",
  "score": 100,
  "rules": [
    {
      "score": 12,
      "rules": [
        {
          "score": 12,
          "type": "Validation",
          "feedback": {
            "successText": "Cell Text should be \"Cash\".",
            "failureText": "Cell Text should be \"Cash\"."
          },
          "toleranceInfo": {
            "ignoreCase": true,
            "trimWhitespace": true
          },
          "id": "R1.1",
          "status": "pass",
          "gotScore": 12
        }
      ],
      "type": "Sum",
      "id": "R1",
      "gotScore": 12,
      "status": "pass",
      "hintPenaltyApplied": false
    },
    {
      "score": 12,
      "rules": [
        {
          "score": 12,
          "type": "Validation",
          "feedback": {
            "successText": "Cell Text should be \"17300\".",
            "failureText": "Cell Text should be \"17300\"."
          },
          "toleranceInfo": {
            "ignoreCase": true,
            "trimWhitespace": true
          },
          "id": "R2.1",
          "status": "pass",
          "gotScore": 12
        }
      ],
      "type": "Sum",
      "id": "R2",
      "gotScore": 12,
      "status": "pass",
      "hintPenaltyApplied": false
    },
    {
      "score": 12,
      "rules": [
        {
          "score": 12,
          "type": "Validation",
          "feedback": {
            "successText": "Cell Text should be \"Accounts Receivable\".",
            "failureText": "Cell Text should be \"Accounts Receivable\"."
          },
          "toleranceInfo": {
            "ignoreCase": true,
            "trimWhitespace": true
          },
          "id": "R3.1",
          "status": "pass",
          "gotScore": 12
        }
      ],
      "type": "Sum",
      "id": "R3",
      "gotScore": 12,
      "status": "pass",
      "hintPenaltyApplied": false
    },
    {
      "score": 12,
      "rules": [
        {
          "score": 12,
          "type": "Validation",
          "feedback": {
            "successText": "Cell Text should be \"33550\".",
            "failureText": "Cell Text should be \"33550\"."
          },
          "toleranceInfo": {
            "ignoreCase": true,
            "trimWhitespace": true
          },
          "id": "R4.1",
          "status": "pass",
          "gotScore": 12
        }
      ],
      "type": "Sum",
      "id": "R4",
      "gotScore": 12,
      "status": "pass",
      "hintPenaltyApplied": false
    },
    {
      "score": 13,
      "rules": [
        {
          "score": 13,
          "type": "Validation",
          "feedback": {
            "successText": "Cell Text should be \"Fees Earned\".",
            "failureText": "Cell Text should be \"Fees Earned\"."
          },
          "toleranceInfo": {
            "ignoreCase": true,
            "trimWhitespace": true
          },
          "id": "R5.1",
          "status": "pass",
          "gotScore": 13
        }
      ],
      "type": "Sum",
      "id": "R5",
      "gotScore": 13,
      "status": "pass",
      "hintPenaltyApplied": false
    },
    {
      "score": 13,
      "rules": [
        {
          "score": 13,
          "type": "Validation",
          "feedback": {
            "successText": "Cell Text should be \"409255\".",
            "failureText": "Cell Text should be \"409255\"."
          },
          "toleranceInfo": {
            "ignoreCase": true,
            "trimWhitespace": true
          },
          "id": "R6.1",
          "status": "pass",
          "gotScore": 13
        }
      ],
      "type": "Sum",
      "id": "R6",
      "gotScore": 13,
      "status": "pass",
      "hintPenaltyApplied": false
    },
    {
      "score": 13,
      "rules": [
        {
          "score": 13,
          "type": "Validation",
          "feedback": {
            "successText": "Cell Text should be \"Wages Expense\".",
            "failureText": "Cell Text should be \"Wages Expense\"."
          },
          "toleranceInfo": {
            "ignoreCase": true,
            "trimWhitespace": true
          },
          "id": "R7.1",
          "status": "pass",
          "gotScore": 13
        }
      ],
      "type": "Sum",
      "id": "R7",
      "gotScore": 13,
      "status": "pass",
      "hintPenaltyApplied": false
    },
    {
      "score": 13,
      "rules": [
        {
          "score": 13,
          "type": "Validation",
          "feedback": {
            "successText": "Cell Text should be \"243250\".",
            "failureText": "Cell Text should be \"243250\"."
          },
          "toleranceInfo": {
            "ignoreCase": true,
            "trimWhitespace": true
          },
          "id": "R8.1",
          "status": "pass",
          "gotScore": 13
        }
      ],
      "type": "Sum",
      "id": "R8",
      "gotScore": 13,
      "status": "pass",
      "hintPenaltyApplied": false
    }
  ],
  "gotScore": 100,
  "status": "pass",
  "hintPenaltyApplied": false
}